ARM GAS  C:\Users\Alex\AppData\Local\Temp\ccO66uyN.s 			page 1


   1              		.syntax unified
   2              		.cpu cortex-m0
   3              		.fpu softvfp
   4              		.eabi_attribute 20, 1
   5              		.eabi_attribute 21, 1
   6              		.eabi_attribute 23, 3
   7              		.eabi_attribute 24, 1
   8              		.eabi_attribute 25, 1
   9              		.eabi_attribute 26, 1
  10              		.eabi_attribute 30, 6
  11              		.eabi_attribute 34, 0
  12              		.eabi_attribute 18, 4
  13              		.thumb
  14              		.syntax unified
  15              		.file	"INT_Buttons.c"
  16              		.text
  17              	.Ltext0:
  18              		.cfi_sections	.debug_frame
  19              		.section	.text.INT_Buttons_Start,"ax",%progbits
  20              		.align	2
  21              		.global	INT_Buttons_Start
  22              		.code	16
  23              		.thumb_func
  24              		.type	INT_Buttons_Start, %function
  25              	INT_Buttons_Start:
  26              	.LFB2:
  27              		.file 1 "Generated_Source\\PSoC4\\INT_Buttons.c"
   1:Generated_Source\PSoC4/INT_Buttons.c **** /*******************************************************************************
   2:Generated_Source\PSoC4/INT_Buttons.c **** * File Name: INT_Buttons.c  
   3:Generated_Source\PSoC4/INT_Buttons.c **** * Version 1.70
   4:Generated_Source\PSoC4/INT_Buttons.c **** *
   5:Generated_Source\PSoC4/INT_Buttons.c **** *  Description:
   6:Generated_Source\PSoC4/INT_Buttons.c **** *   API for controlling the state of an interrupt.
   7:Generated_Source\PSoC4/INT_Buttons.c **** *
   8:Generated_Source\PSoC4/INT_Buttons.c **** *
   9:Generated_Source\PSoC4/INT_Buttons.c **** *  Note:
  10:Generated_Source\PSoC4/INT_Buttons.c **** *
  11:Generated_Source\PSoC4/INT_Buttons.c **** ********************************************************************************
  12:Generated_Source\PSoC4/INT_Buttons.c **** * Copyright 2008-2015, Cypress Semiconductor Corporation.  All rights reserved.
  13:Generated_Source\PSoC4/INT_Buttons.c **** * You may use this file only in accordance with the license, terms, conditions, 
  14:Generated_Source\PSoC4/INT_Buttons.c **** * disclaimers, and limitations in the end user license agreement accompanying 
  15:Generated_Source\PSoC4/INT_Buttons.c **** * the software package with which this file was provided.
  16:Generated_Source\PSoC4/INT_Buttons.c **** *******************************************************************************/
  17:Generated_Source\PSoC4/INT_Buttons.c **** 
  18:Generated_Source\PSoC4/INT_Buttons.c **** 
  19:Generated_Source\PSoC4/INT_Buttons.c **** #include <cydevice_trm.h>
  20:Generated_Source\PSoC4/INT_Buttons.c **** #include <CyLib.h>
  21:Generated_Source\PSoC4/INT_Buttons.c **** #include <INT_Buttons.h>
  22:Generated_Source\PSoC4/INT_Buttons.c **** #include "cyapicallbacks.h"
  23:Generated_Source\PSoC4/INT_Buttons.c **** 
  24:Generated_Source\PSoC4/INT_Buttons.c **** #if !defined(INT_Buttons__REMOVED) /* Check for removal by optimization */
  25:Generated_Source\PSoC4/INT_Buttons.c **** 
  26:Generated_Source\PSoC4/INT_Buttons.c **** /*******************************************************************************
  27:Generated_Source\PSoC4/INT_Buttons.c **** *  Place your includes, defines and code here 
  28:Generated_Source\PSoC4/INT_Buttons.c **** ********************************************************************************/
  29:Generated_Source\PSoC4/INT_Buttons.c **** /* `#START INT_Buttons_intc` */
  30:Generated_Source\PSoC4/INT_Buttons.c **** 
ARM GAS  C:\Users\Alex\AppData\Local\Temp\ccO66uyN.s 			page 2


  31:Generated_Source\PSoC4/INT_Buttons.c **** /* `#END` */
  32:Generated_Source\PSoC4/INT_Buttons.c **** 
  33:Generated_Source\PSoC4/INT_Buttons.c **** extern cyisraddress CyRamVectors[CYINT_IRQ_BASE + CY_NUM_INTERRUPTS];
  34:Generated_Source\PSoC4/INT_Buttons.c **** 
  35:Generated_Source\PSoC4/INT_Buttons.c **** /* Declared in startup, used to set unused interrupts to. */
  36:Generated_Source\PSoC4/INT_Buttons.c **** CY_ISR_PROTO(IntDefaultHandler);
  37:Generated_Source\PSoC4/INT_Buttons.c **** 
  38:Generated_Source\PSoC4/INT_Buttons.c **** 
  39:Generated_Source\PSoC4/INT_Buttons.c **** /*******************************************************************************
  40:Generated_Source\PSoC4/INT_Buttons.c **** * Function Name: INT_Buttons_Start
  41:Generated_Source\PSoC4/INT_Buttons.c **** ********************************************************************************
  42:Generated_Source\PSoC4/INT_Buttons.c **** *
  43:Generated_Source\PSoC4/INT_Buttons.c **** * Summary:
  44:Generated_Source\PSoC4/INT_Buttons.c **** *  Set up the interrupt and enable it. This function disables the interrupt, 
  45:Generated_Source\PSoC4/INT_Buttons.c **** *  sets the default interrupt vector, sets the priority from the value in the
  46:Generated_Source\PSoC4/INT_Buttons.c **** *  Design Wide Resources Interrupt Editor, then enables the interrupt to the 
  47:Generated_Source\PSoC4/INT_Buttons.c **** *  interrupt controller.
  48:Generated_Source\PSoC4/INT_Buttons.c **** *
  49:Generated_Source\PSoC4/INT_Buttons.c **** * Parameters:  
  50:Generated_Source\PSoC4/INT_Buttons.c **** *   None
  51:Generated_Source\PSoC4/INT_Buttons.c **** *
  52:Generated_Source\PSoC4/INT_Buttons.c **** * Return:
  53:Generated_Source\PSoC4/INT_Buttons.c **** *   None
  54:Generated_Source\PSoC4/INT_Buttons.c **** *
  55:Generated_Source\PSoC4/INT_Buttons.c **** *******************************************************************************/
  56:Generated_Source\PSoC4/INT_Buttons.c **** void INT_Buttons_Start(void)
  57:Generated_Source\PSoC4/INT_Buttons.c **** {
  28              		.loc 1 57 0
  29              		.cfi_startproc
  30              		@ args = 0, pretend = 0, frame = 0
  31              		@ frame_needed = 1, uses_anonymous_args = 0
  32 0000 80B5     		push	{r7, lr}
  33              		.cfi_def_cfa_offset 8
  34              		.cfi_offset 7, -8
  35              		.cfi_offset 14, -4
  36 0002 00AF     		add	r7, sp, #0
  37              		.cfi_def_cfa_register 7
  58:Generated_Source\PSoC4/INT_Buttons.c ****     /* For all we know the interrupt is active. */
  59:Generated_Source\PSoC4/INT_Buttons.c ****     INT_Buttons_Disable();
  38              		.loc 1 59 0
  39 0004 FFF7FEFF 		bl	INT_Buttons_Disable
  60:Generated_Source\PSoC4/INT_Buttons.c **** 
  61:Generated_Source\PSoC4/INT_Buttons.c ****     /* Set the ISR to point to the INT_Buttons Interrupt. */
  62:Generated_Source\PSoC4/INT_Buttons.c ****     INT_Buttons_SetVector(&INT_Buttons_Interrupt);
  40              		.loc 1 62 0
  41 0008 054B     		ldr	r3, .L2
  42 000a 1800     		movs	r0, r3
  43 000c FFF7FEFF 		bl	INT_Buttons_SetVector
  63:Generated_Source\PSoC4/INT_Buttons.c **** 
  64:Generated_Source\PSoC4/INT_Buttons.c ****     /* Set the priority. */
  65:Generated_Source\PSoC4/INT_Buttons.c ****     INT_Buttons_SetPriority((uint8)INT_Buttons_INTC_PRIOR_NUMBER);
  44              		.loc 1 65 0
  45 0010 0320     		movs	r0, #3
  46 0012 FFF7FEFF 		bl	INT_Buttons_SetPriority
  66:Generated_Source\PSoC4/INT_Buttons.c **** 
  67:Generated_Source\PSoC4/INT_Buttons.c ****     /* Enable it. */
  68:Generated_Source\PSoC4/INT_Buttons.c ****     INT_Buttons_Enable();
ARM GAS  C:\Users\Alex\AppData\Local\Temp\ccO66uyN.s 			page 3


  47              		.loc 1 68 0
  48 0016 FFF7FEFF 		bl	INT_Buttons_Enable
  69:Generated_Source\PSoC4/INT_Buttons.c **** }
  49              		.loc 1 69 0
  50 001a C046     		nop
  51 001c BD46     		mov	sp, r7
  52              		@ sp needed
  53 001e 80BD     		pop	{r7, pc}
  54              	.L3:
  55              		.align	2
  56              	.L2:
  57 0020 00000000 		.word	INT_Buttons_Interrupt
  58              		.cfi_endproc
  59              	.LFE2:
  60              		.size	INT_Buttons_Start, .-INT_Buttons_Start
  61              		.section	.text.INT_Buttons_StartEx,"ax",%progbits
  62              		.align	2
  63              		.global	INT_Buttons_StartEx
  64              		.code	16
  65              		.thumb_func
  66              		.type	INT_Buttons_StartEx, %function
  67              	INT_Buttons_StartEx:
  68              	.LFB3:
  70:Generated_Source\PSoC4/INT_Buttons.c **** 
  71:Generated_Source\PSoC4/INT_Buttons.c **** 
  72:Generated_Source\PSoC4/INT_Buttons.c **** /*******************************************************************************
  73:Generated_Source\PSoC4/INT_Buttons.c **** * Function Name: INT_Buttons_StartEx
  74:Generated_Source\PSoC4/INT_Buttons.c **** ********************************************************************************
  75:Generated_Source\PSoC4/INT_Buttons.c **** *
  76:Generated_Source\PSoC4/INT_Buttons.c **** * Summary:
  77:Generated_Source\PSoC4/INT_Buttons.c **** *  Sets up the interrupt and enables it. This function disables the interrupt,
  78:Generated_Source\PSoC4/INT_Buttons.c **** *  sets the interrupt vector based on the address passed in, sets the priority 
  79:Generated_Source\PSoC4/INT_Buttons.c **** *  from the value in the Design Wide Resources Interrupt Editor, then enables 
  80:Generated_Source\PSoC4/INT_Buttons.c **** *  the interrupt to the interrupt controller.
  81:Generated_Source\PSoC4/INT_Buttons.c **** *  
  82:Generated_Source\PSoC4/INT_Buttons.c **** *  When defining ISR functions, the CY_ISR and CY_ISR_PROTO macros should be 
  83:Generated_Source\PSoC4/INT_Buttons.c **** *  used to provide consistent definition across compilers:
  84:Generated_Source\PSoC4/INT_Buttons.c **** *  
  85:Generated_Source\PSoC4/INT_Buttons.c **** *  Function definition example:
  86:Generated_Source\PSoC4/INT_Buttons.c **** *   CY_ISR(MyISR)
  87:Generated_Source\PSoC4/INT_Buttons.c **** *   {
  88:Generated_Source\PSoC4/INT_Buttons.c **** *   }
  89:Generated_Source\PSoC4/INT_Buttons.c **** *   Function prototype example:
  90:Generated_Source\PSoC4/INT_Buttons.c **** *   CY_ISR_PROTO(MyISR);
  91:Generated_Source\PSoC4/INT_Buttons.c **** *
  92:Generated_Source\PSoC4/INT_Buttons.c **** * Parameters:  
  93:Generated_Source\PSoC4/INT_Buttons.c **** *   address: Address of the ISR to set in the interrupt vector table.
  94:Generated_Source\PSoC4/INT_Buttons.c **** *
  95:Generated_Source\PSoC4/INT_Buttons.c **** * Return:
  96:Generated_Source\PSoC4/INT_Buttons.c **** *   None
  97:Generated_Source\PSoC4/INT_Buttons.c **** *
  98:Generated_Source\PSoC4/INT_Buttons.c **** *******************************************************************************/
  99:Generated_Source\PSoC4/INT_Buttons.c **** void INT_Buttons_StartEx(cyisraddress address)
 100:Generated_Source\PSoC4/INT_Buttons.c **** {
  69              		.loc 1 100 0
  70              		.cfi_startproc
  71              		@ args = 0, pretend = 0, frame = 8
ARM GAS  C:\Users\Alex\AppData\Local\Temp\ccO66uyN.s 			page 4


  72              		@ frame_needed = 1, uses_anonymous_args = 0
  73 0000 80B5     		push	{r7, lr}
  74              		.cfi_def_cfa_offset 8
  75              		.cfi_offset 7, -8
  76              		.cfi_offset 14, -4
  77 0002 82B0     		sub	sp, sp, #8
  78              		.cfi_def_cfa_offset 16
  79 0004 00AF     		add	r7, sp, #0
  80              		.cfi_def_cfa_register 7
  81 0006 7860     		str	r0, [r7, #4]
 101:Generated_Source\PSoC4/INT_Buttons.c ****     /* For all we know the interrupt is active. */
 102:Generated_Source\PSoC4/INT_Buttons.c ****     INT_Buttons_Disable();
  82              		.loc 1 102 0
  83 0008 FFF7FEFF 		bl	INT_Buttons_Disable
 103:Generated_Source\PSoC4/INT_Buttons.c **** 
 104:Generated_Source\PSoC4/INT_Buttons.c ****     /* Set the ISR to point to the INT_Buttons Interrupt. */
 105:Generated_Source\PSoC4/INT_Buttons.c ****     INT_Buttons_SetVector(address);
  84              		.loc 1 105 0
  85 000c 7B68     		ldr	r3, [r7, #4]
  86 000e 1800     		movs	r0, r3
  87 0010 FFF7FEFF 		bl	INT_Buttons_SetVector
 106:Generated_Source\PSoC4/INT_Buttons.c **** 
 107:Generated_Source\PSoC4/INT_Buttons.c ****     /* Set the priority. */
 108:Generated_Source\PSoC4/INT_Buttons.c ****     INT_Buttons_SetPriority((uint8)INT_Buttons_INTC_PRIOR_NUMBER);
  88              		.loc 1 108 0
  89 0014 0320     		movs	r0, #3
  90 0016 FFF7FEFF 		bl	INT_Buttons_SetPriority
 109:Generated_Source\PSoC4/INT_Buttons.c **** 
 110:Generated_Source\PSoC4/INT_Buttons.c ****     /* Enable it. */
 111:Generated_Source\PSoC4/INT_Buttons.c ****     INT_Buttons_Enable();
  91              		.loc 1 111 0
  92 001a FFF7FEFF 		bl	INT_Buttons_Enable
 112:Generated_Source\PSoC4/INT_Buttons.c **** }
  93              		.loc 1 112 0
  94 001e C046     		nop
  95 0020 BD46     		mov	sp, r7
  96 0022 02B0     		add	sp, sp, #8
  97              		@ sp needed
  98 0024 80BD     		pop	{r7, pc}
  99              		.cfi_endproc
 100              	.LFE3:
 101              		.size	INT_Buttons_StartEx, .-INT_Buttons_StartEx
 102 0026 C046     		.section	.text.INT_Buttons_Stop,"ax",%progbits
 103              		.align	2
 104              		.global	INT_Buttons_Stop
 105              		.code	16
 106              		.thumb_func
 107              		.type	INT_Buttons_Stop, %function
 108              	INT_Buttons_Stop:
 109              	.LFB4:
 113:Generated_Source\PSoC4/INT_Buttons.c **** 
 114:Generated_Source\PSoC4/INT_Buttons.c **** 
 115:Generated_Source\PSoC4/INT_Buttons.c **** /*******************************************************************************
 116:Generated_Source\PSoC4/INT_Buttons.c **** * Function Name: INT_Buttons_Stop
 117:Generated_Source\PSoC4/INT_Buttons.c **** ********************************************************************************
 118:Generated_Source\PSoC4/INT_Buttons.c **** *
 119:Generated_Source\PSoC4/INT_Buttons.c **** * Summary:
ARM GAS  C:\Users\Alex\AppData\Local\Temp\ccO66uyN.s 			page 5


 120:Generated_Source\PSoC4/INT_Buttons.c **** *   Disables and removes the interrupt.
 121:Generated_Source\PSoC4/INT_Buttons.c **** *
 122:Generated_Source\PSoC4/INT_Buttons.c **** * Parameters:  
 123:Generated_Source\PSoC4/INT_Buttons.c **** *   None
 124:Generated_Source\PSoC4/INT_Buttons.c **** *
 125:Generated_Source\PSoC4/INT_Buttons.c **** * Return:
 126:Generated_Source\PSoC4/INT_Buttons.c **** *   None
 127:Generated_Source\PSoC4/INT_Buttons.c **** *
 128:Generated_Source\PSoC4/INT_Buttons.c **** *******************************************************************************/
 129:Generated_Source\PSoC4/INT_Buttons.c **** void INT_Buttons_Stop(void)
 130:Generated_Source\PSoC4/INT_Buttons.c **** {
 110              		.loc 1 130 0
 111              		.cfi_startproc
 112              		@ args = 0, pretend = 0, frame = 0
 113              		@ frame_needed = 1, uses_anonymous_args = 0
 114 0000 80B5     		push	{r7, lr}
 115              		.cfi_def_cfa_offset 8
 116              		.cfi_offset 7, -8
 117              		.cfi_offset 14, -4
 118 0002 00AF     		add	r7, sp, #0
 119              		.cfi_def_cfa_register 7
 131:Generated_Source\PSoC4/INT_Buttons.c ****     /* Disable this interrupt. */
 132:Generated_Source\PSoC4/INT_Buttons.c ****     INT_Buttons_Disable();
 120              		.loc 1 132 0
 121 0004 FFF7FEFF 		bl	INT_Buttons_Disable
 133:Generated_Source\PSoC4/INT_Buttons.c **** 
 134:Generated_Source\PSoC4/INT_Buttons.c ****     /* Set the ISR to point to the passive one. */
 135:Generated_Source\PSoC4/INT_Buttons.c ****     INT_Buttons_SetVector(&IntDefaultHandler);
 122              		.loc 1 135 0
 123 0008 034B     		ldr	r3, .L6
 124 000a 1800     		movs	r0, r3
 125 000c FFF7FEFF 		bl	INT_Buttons_SetVector
 136:Generated_Source\PSoC4/INT_Buttons.c **** }
 126              		.loc 1 136 0
 127 0010 C046     		nop
 128 0012 BD46     		mov	sp, r7
 129              		@ sp needed
 130 0014 80BD     		pop	{r7, pc}
 131              	.L7:
 132 0016 C046     		.align	2
 133              	.L6:
 134 0018 00000000 		.word	IntDefaultHandler
 135              		.cfi_endproc
 136              	.LFE4:
 137              		.size	INT_Buttons_Stop, .-INT_Buttons_Stop
 138              		.section	.text.INT_Buttons_Interrupt,"ax",%progbits
 139              		.align	2
 140              		.global	INT_Buttons_Interrupt
 141              		.code	16
 142              		.thumb_func
 143              		.type	INT_Buttons_Interrupt, %function
 144              	INT_Buttons_Interrupt:
 145              	.LFB5:
 137:Generated_Source\PSoC4/INT_Buttons.c **** 
 138:Generated_Source\PSoC4/INT_Buttons.c **** 
 139:Generated_Source\PSoC4/INT_Buttons.c **** /*******************************************************************************
 140:Generated_Source\PSoC4/INT_Buttons.c **** * Function Name: INT_Buttons_Interrupt
ARM GAS  C:\Users\Alex\AppData\Local\Temp\ccO66uyN.s 			page 6


 141:Generated_Source\PSoC4/INT_Buttons.c **** ********************************************************************************
 142:Generated_Source\PSoC4/INT_Buttons.c **** *
 143:Generated_Source\PSoC4/INT_Buttons.c **** * Summary:
 144:Generated_Source\PSoC4/INT_Buttons.c **** *   The default Interrupt Service Routine for INT_Buttons.
 145:Generated_Source\PSoC4/INT_Buttons.c **** *
 146:Generated_Source\PSoC4/INT_Buttons.c **** *   Add custom code between the START and END comments to keep the next version
 147:Generated_Source\PSoC4/INT_Buttons.c **** *   of this file from over-writing your code.
 148:Generated_Source\PSoC4/INT_Buttons.c **** *
 149:Generated_Source\PSoC4/INT_Buttons.c **** *   Note You may use either the default ISR by using this API, or you may define
 150:Generated_Source\PSoC4/INT_Buttons.c **** *   your own separate ISR through ISR_StartEx().
 151:Generated_Source\PSoC4/INT_Buttons.c **** *
 152:Generated_Source\PSoC4/INT_Buttons.c **** * Parameters:  
 153:Generated_Source\PSoC4/INT_Buttons.c **** *   None
 154:Generated_Source\PSoC4/INT_Buttons.c **** *
 155:Generated_Source\PSoC4/INT_Buttons.c **** * Return:
 156:Generated_Source\PSoC4/INT_Buttons.c **** *   None
 157:Generated_Source\PSoC4/INT_Buttons.c **** *
 158:Generated_Source\PSoC4/INT_Buttons.c **** *******************************************************************************/
 159:Generated_Source\PSoC4/INT_Buttons.c **** CY_ISR(INT_Buttons_Interrupt)
 160:Generated_Source\PSoC4/INT_Buttons.c **** {
 146              		.loc 1 160 0
 147              		.cfi_startproc
 148              		@ args = 0, pretend = 0, frame = 0
 149              		@ frame_needed = 1, uses_anonymous_args = 0
 150 0000 80B5     		push	{r7, lr}
 151              		.cfi_def_cfa_offset 8
 152              		.cfi_offset 7, -8
 153              		.cfi_offset 14, -4
 154 0002 00AF     		add	r7, sp, #0
 155              		.cfi_def_cfa_register 7
 161:Generated_Source\PSoC4/INT_Buttons.c ****     #ifdef INT_Buttons_INTERRUPT_INTERRUPT_CALLBACK
 162:Generated_Source\PSoC4/INT_Buttons.c ****         INT_Buttons_Interrupt_InterruptCallback();
 163:Generated_Source\PSoC4/INT_Buttons.c ****     #endif /* INT_Buttons_INTERRUPT_INTERRUPT_CALLBACK */ 
 164:Generated_Source\PSoC4/INT_Buttons.c **** 
 165:Generated_Source\PSoC4/INT_Buttons.c ****     /*  Place your Interrupt code here. */
 166:Generated_Source\PSoC4/INT_Buttons.c ****     /* `#START INT_Buttons_Interrupt` */
 167:Generated_Source\PSoC4/INT_Buttons.c **** 
 168:Generated_Source\PSoC4/INT_Buttons.c ****     /* `#END` */
 169:Generated_Source\PSoC4/INT_Buttons.c **** }
 156              		.loc 1 169 0
 157 0004 C046     		nop
 158 0006 BD46     		mov	sp, r7
 159              		@ sp needed
 160 0008 80BD     		pop	{r7, pc}
 161              		.cfi_endproc
 162              	.LFE5:
 163              		.size	INT_Buttons_Interrupt, .-INT_Buttons_Interrupt
 164              		.section	.text.INT_Buttons_SetVector,"ax",%progbits
 165              		.align	2
 166              		.global	INT_Buttons_SetVector
 167              		.code	16
 168              		.thumb_func
 169              		.type	INT_Buttons_SetVector, %function
 170              	INT_Buttons_SetVector:
 171              	.LFB6:
 170:Generated_Source\PSoC4/INT_Buttons.c **** 
 171:Generated_Source\PSoC4/INT_Buttons.c **** 
ARM GAS  C:\Users\Alex\AppData\Local\Temp\ccO66uyN.s 			page 7


 172:Generated_Source\PSoC4/INT_Buttons.c **** /*******************************************************************************
 173:Generated_Source\PSoC4/INT_Buttons.c **** * Function Name: INT_Buttons_SetVector
 174:Generated_Source\PSoC4/INT_Buttons.c **** ********************************************************************************
 175:Generated_Source\PSoC4/INT_Buttons.c **** *
 176:Generated_Source\PSoC4/INT_Buttons.c **** * Summary:
 177:Generated_Source\PSoC4/INT_Buttons.c **** *   Change the ISR vector for the Interrupt. Note calling INT_Buttons_Start
 178:Generated_Source\PSoC4/INT_Buttons.c **** *   will override any effect this method would have had. To set the vector 
 179:Generated_Source\PSoC4/INT_Buttons.c **** *   before the component has been started use INT_Buttons_StartEx instead.
 180:Generated_Source\PSoC4/INT_Buttons.c **** * 
 181:Generated_Source\PSoC4/INT_Buttons.c **** *   When defining ISR functions, the CY_ISR and CY_ISR_PROTO macros should be 
 182:Generated_Source\PSoC4/INT_Buttons.c **** *   used to provide consistent definition across compilers:
 183:Generated_Source\PSoC4/INT_Buttons.c **** *
 184:Generated_Source\PSoC4/INT_Buttons.c **** *   Function definition example:
 185:Generated_Source\PSoC4/INT_Buttons.c **** *   CY_ISR(MyISR)
 186:Generated_Source\PSoC4/INT_Buttons.c **** *   {
 187:Generated_Source\PSoC4/INT_Buttons.c **** *   }
 188:Generated_Source\PSoC4/INT_Buttons.c **** *
 189:Generated_Source\PSoC4/INT_Buttons.c **** *   Function prototype example:
 190:Generated_Source\PSoC4/INT_Buttons.c **** *     CY_ISR_PROTO(MyISR);
 191:Generated_Source\PSoC4/INT_Buttons.c **** *
 192:Generated_Source\PSoC4/INT_Buttons.c **** * Parameters:
 193:Generated_Source\PSoC4/INT_Buttons.c **** *   address: Address of the ISR to set in the interrupt vector table.
 194:Generated_Source\PSoC4/INT_Buttons.c **** *
 195:Generated_Source\PSoC4/INT_Buttons.c **** * Return:
 196:Generated_Source\PSoC4/INT_Buttons.c **** *   None
 197:Generated_Source\PSoC4/INT_Buttons.c **** *
 198:Generated_Source\PSoC4/INT_Buttons.c **** *******************************************************************************/
 199:Generated_Source\PSoC4/INT_Buttons.c **** void INT_Buttons_SetVector(cyisraddress address)
 200:Generated_Source\PSoC4/INT_Buttons.c **** {
 172              		.loc 1 200 0
 173              		.cfi_startproc
 174              		@ args = 0, pretend = 0, frame = 8
 175              		@ frame_needed = 1, uses_anonymous_args = 0
 176 0000 80B5     		push	{r7, lr}
 177              		.cfi_def_cfa_offset 8
 178              		.cfi_offset 7, -8
 179              		.cfi_offset 14, -4
 180 0002 82B0     		sub	sp, sp, #8
 181              		.cfi_def_cfa_offset 16
 182 0004 00AF     		add	r7, sp, #0
 183              		.cfi_def_cfa_register 7
 184 0006 7860     		str	r0, [r7, #4]
 201:Generated_Source\PSoC4/INT_Buttons.c ****     CyRamVectors[CYINT_IRQ_BASE + INT_Buttons__INTC_NUMBER] = address;
 185              		.loc 1 201 0
 186 0008 034B     		ldr	r3, .L10
 187 000a 7A68     		ldr	r2, [r7, #4]
 188 000c 9A64     		str	r2, [r3, #72]
 202:Generated_Source\PSoC4/INT_Buttons.c **** }
 189              		.loc 1 202 0
 190 000e C046     		nop
 191 0010 BD46     		mov	sp, r7
 192 0012 02B0     		add	sp, sp, #8
 193              		@ sp needed
 194 0014 80BD     		pop	{r7, pc}
 195              	.L11:
 196 0016 C046     		.align	2
 197              	.L10:
ARM GAS  C:\Users\Alex\AppData\Local\Temp\ccO66uyN.s 			page 8


 198 0018 00000000 		.word	CyRamVectors
 199              		.cfi_endproc
 200              	.LFE6:
 201              		.size	INT_Buttons_SetVector, .-INT_Buttons_SetVector
 202              		.section	.text.INT_Buttons_GetVector,"ax",%progbits
 203              		.align	2
 204              		.global	INT_Buttons_GetVector
 205              		.code	16
 206              		.thumb_func
 207              		.type	INT_Buttons_GetVector, %function
 208              	INT_Buttons_GetVector:
 209              	.LFB7:
 203:Generated_Source\PSoC4/INT_Buttons.c **** 
 204:Generated_Source\PSoC4/INT_Buttons.c **** 
 205:Generated_Source\PSoC4/INT_Buttons.c **** /*******************************************************************************
 206:Generated_Source\PSoC4/INT_Buttons.c **** * Function Name: INT_Buttons_GetVector
 207:Generated_Source\PSoC4/INT_Buttons.c **** ********************************************************************************
 208:Generated_Source\PSoC4/INT_Buttons.c **** *
 209:Generated_Source\PSoC4/INT_Buttons.c **** * Summary:
 210:Generated_Source\PSoC4/INT_Buttons.c **** *   Gets the "address" of the current ISR vector for the Interrupt.
 211:Generated_Source\PSoC4/INT_Buttons.c **** *
 212:Generated_Source\PSoC4/INT_Buttons.c **** * Parameters:
 213:Generated_Source\PSoC4/INT_Buttons.c **** *   None
 214:Generated_Source\PSoC4/INT_Buttons.c **** *
 215:Generated_Source\PSoC4/INT_Buttons.c **** * Return:
 216:Generated_Source\PSoC4/INT_Buttons.c **** *   Address of the ISR in the interrupt vector table.
 217:Generated_Source\PSoC4/INT_Buttons.c **** *
 218:Generated_Source\PSoC4/INT_Buttons.c **** *******************************************************************************/
 219:Generated_Source\PSoC4/INT_Buttons.c **** cyisraddress INT_Buttons_GetVector(void)
 220:Generated_Source\PSoC4/INT_Buttons.c **** {
 210              		.loc 1 220 0
 211              		.cfi_startproc
 212              		@ args = 0, pretend = 0, frame = 0
 213              		@ frame_needed = 1, uses_anonymous_args = 0
 214 0000 80B5     		push	{r7, lr}
 215              		.cfi_def_cfa_offset 8
 216              		.cfi_offset 7, -8
 217              		.cfi_offset 14, -4
 218 0002 00AF     		add	r7, sp, #0
 219              		.cfi_def_cfa_register 7
 221:Generated_Source\PSoC4/INT_Buttons.c ****     return CyRamVectors[CYINT_IRQ_BASE + INT_Buttons__INTC_NUMBER];
 220              		.loc 1 221 0
 221 0004 024B     		ldr	r3, .L14
 222 0006 9B6C     		ldr	r3, [r3, #72]
 222:Generated_Source\PSoC4/INT_Buttons.c **** }
 223              		.loc 1 222 0
 224 0008 1800     		movs	r0, r3
 225 000a BD46     		mov	sp, r7
 226              		@ sp needed
 227 000c 80BD     		pop	{r7, pc}
 228              	.L15:
 229 000e C046     		.align	2
 230              	.L14:
 231 0010 00000000 		.word	CyRamVectors
 232              		.cfi_endproc
 233              	.LFE7:
 234              		.size	INT_Buttons_GetVector, .-INT_Buttons_GetVector
ARM GAS  C:\Users\Alex\AppData\Local\Temp\ccO66uyN.s 			page 9


 235              		.section	.text.INT_Buttons_SetPriority,"ax",%progbits
 236              		.align	2
 237              		.global	INT_Buttons_SetPriority
 238              		.code	16
 239              		.thumb_func
 240              		.type	INT_Buttons_SetPriority, %function
 241              	INT_Buttons_SetPriority:
 242              	.LFB8:
 223:Generated_Source\PSoC4/INT_Buttons.c **** 
 224:Generated_Source\PSoC4/INT_Buttons.c **** 
 225:Generated_Source\PSoC4/INT_Buttons.c **** /*******************************************************************************
 226:Generated_Source\PSoC4/INT_Buttons.c **** * Function Name: INT_Buttons_SetPriority
 227:Generated_Source\PSoC4/INT_Buttons.c **** ********************************************************************************
 228:Generated_Source\PSoC4/INT_Buttons.c **** *
 229:Generated_Source\PSoC4/INT_Buttons.c **** * Summary:
 230:Generated_Source\PSoC4/INT_Buttons.c **** *   Sets the Priority of the Interrupt. 
 231:Generated_Source\PSoC4/INT_Buttons.c **** *
 232:Generated_Source\PSoC4/INT_Buttons.c **** *   Note calling INT_Buttons_Start or INT_Buttons_StartEx will 
 233:Generated_Source\PSoC4/INT_Buttons.c **** *   override any effect this API would have had. This API should only be called
 234:Generated_Source\PSoC4/INT_Buttons.c **** *   after INT_Buttons_Start or INT_Buttons_StartEx has been called. 
 235:Generated_Source\PSoC4/INT_Buttons.c **** *   To set the initial priority for the component, use the Design-Wide Resources
 236:Generated_Source\PSoC4/INT_Buttons.c **** *   Interrupt Editor.
 237:Generated_Source\PSoC4/INT_Buttons.c **** *
 238:Generated_Source\PSoC4/INT_Buttons.c **** *   Note This API has no effect on Non-maskable interrupt NMI).
 239:Generated_Source\PSoC4/INT_Buttons.c **** *
 240:Generated_Source\PSoC4/INT_Buttons.c **** * Parameters:
 241:Generated_Source\PSoC4/INT_Buttons.c **** *   priority: Priority of the interrupt, 0 being the highest priority
 242:Generated_Source\PSoC4/INT_Buttons.c **** *             PSoC 3 and PSoC 5LP: Priority is from 0 to 7.
 243:Generated_Source\PSoC4/INT_Buttons.c **** *             PSoC 4: Priority is from 0 to 3.
 244:Generated_Source\PSoC4/INT_Buttons.c **** *
 245:Generated_Source\PSoC4/INT_Buttons.c **** * Return:
 246:Generated_Source\PSoC4/INT_Buttons.c **** *   None
 247:Generated_Source\PSoC4/INT_Buttons.c **** *
 248:Generated_Source\PSoC4/INT_Buttons.c **** *******************************************************************************/
 249:Generated_Source\PSoC4/INT_Buttons.c **** void INT_Buttons_SetPriority(uint8 priority)
 250:Generated_Source\PSoC4/INT_Buttons.c **** {
 243              		.loc 1 250 0
 244              		.cfi_startproc
 245              		@ args = 0, pretend = 0, frame = 16
 246              		@ frame_needed = 1, uses_anonymous_args = 0
 247 0000 90B5     		push	{r4, r7, lr}
 248              		.cfi_def_cfa_offset 12
 249              		.cfi_offset 4, -12
 250              		.cfi_offset 7, -8
 251              		.cfi_offset 14, -4
 252 0002 85B0     		sub	sp, sp, #20
 253              		.cfi_def_cfa_offset 32
 254 0004 00AF     		add	r7, sp, #0
 255              		.cfi_def_cfa_register 7
 256 0006 0200     		movs	r2, r0
 257 0008 FB1D     		adds	r3, r7, #7
 258 000a 1A70     		strb	r2, [r3]
 251:Generated_Source\PSoC4/INT_Buttons.c **** 	uint8 interruptState;
 252:Generated_Source\PSoC4/INT_Buttons.c ****     uint32 priorityOffset = ((INT_Buttons__INTC_NUMBER % 4u) * 8u) + 6u;
 259              		.loc 1 252 0
 260 000c 1623     		movs	r3, #22
 261 000e FB60     		str	r3, [r7, #12]
ARM GAS  C:\Users\Alex\AppData\Local\Temp\ccO66uyN.s 			page 10


 253:Generated_Source\PSoC4/INT_Buttons.c ****     
 254:Generated_Source\PSoC4/INT_Buttons.c **** 	interruptState = CyEnterCriticalSection();
 262              		.loc 1 254 0
 263 0010 0B23     		movs	r3, #11
 264 0012 FC18     		adds	r4, r7, r3
 265 0014 FFF7FEFF 		bl	CyEnterCriticalSection
 266 0018 0300     		movs	r3, r0
 267 001a 2370     		strb	r3, [r4]
 255:Generated_Source\PSoC4/INT_Buttons.c ****     *INT_Buttons_INTC_PRIOR = (*INT_Buttons_INTC_PRIOR & (uint32)(~INT_Buttons__INTC_PRIOR_MASK)) |
 268              		.loc 1 255 0
 269 001c 0A4B     		ldr	r3, .L17
 270 001e 0A4A     		ldr	r2, .L17
 271 0020 1268     		ldr	r2, [r2]
 272 0022 0A49     		ldr	r1, .L17+4
 273 0024 1140     		ands	r1, r2
 256:Generated_Source\PSoC4/INT_Buttons.c ****                                     ((uint32)priority << priorityOffset);
 274              		.loc 1 256 0
 275 0026 FA1D     		adds	r2, r7, #7
 276 0028 1078     		ldrb	r0, [r2]
 277 002a FA68     		ldr	r2, [r7, #12]
 278 002c 9040     		lsls	r0, r0, r2
 279 002e 0200     		movs	r2, r0
 255:Generated_Source\PSoC4/INT_Buttons.c ****     *INT_Buttons_INTC_PRIOR = (*INT_Buttons_INTC_PRIOR & (uint32)(~INT_Buttons__INTC_PRIOR_MASK)) |
 280              		.loc 1 255 0
 281 0030 0A43     		orrs	r2, r1
 282 0032 1A60     		str	r2, [r3]
 257:Generated_Source\PSoC4/INT_Buttons.c **** 	CyExitCriticalSection(interruptState);
 283              		.loc 1 257 0
 284 0034 0B23     		movs	r3, #11
 285 0036 FB18     		adds	r3, r7, r3
 286 0038 1B78     		ldrb	r3, [r3]
 287 003a 1800     		movs	r0, r3
 288 003c FFF7FEFF 		bl	CyExitCriticalSection
 258:Generated_Source\PSoC4/INT_Buttons.c **** }
 289              		.loc 1 258 0
 290 0040 C046     		nop
 291 0042 BD46     		mov	sp, r7
 292 0044 05B0     		add	sp, sp, #20
 293              		@ sp needed
 294 0046 90BD     		pop	{r4, r7, pc}
 295              	.L18:
 296              		.align	2
 297              	.L17:
 298 0048 00E400E0 		.word	-536812544
 299 004c FFFF3FFF 		.word	-12582913
 300              		.cfi_endproc
 301              	.LFE8:
 302              		.size	INT_Buttons_SetPriority, .-INT_Buttons_SetPriority
 303              		.section	.text.INT_Buttons_GetPriority,"ax",%progbits
 304              		.align	2
 305              		.global	INT_Buttons_GetPriority
 306              		.code	16
 307              		.thumb_func
 308              		.type	INT_Buttons_GetPriority, %function
 309              	INT_Buttons_GetPriority:
 310              	.LFB9:
 259:Generated_Source\PSoC4/INT_Buttons.c **** 
ARM GAS  C:\Users\Alex\AppData\Local\Temp\ccO66uyN.s 			page 11


 260:Generated_Source\PSoC4/INT_Buttons.c **** 
 261:Generated_Source\PSoC4/INT_Buttons.c **** /*******************************************************************************
 262:Generated_Source\PSoC4/INT_Buttons.c **** * Function Name: INT_Buttons_GetPriority
 263:Generated_Source\PSoC4/INT_Buttons.c **** ********************************************************************************
 264:Generated_Source\PSoC4/INT_Buttons.c **** *
 265:Generated_Source\PSoC4/INT_Buttons.c **** * Summary:
 266:Generated_Source\PSoC4/INT_Buttons.c **** *   Gets the Priority of the Interrupt.
 267:Generated_Source\PSoC4/INT_Buttons.c **** *
 268:Generated_Source\PSoC4/INT_Buttons.c **** * Parameters:
 269:Generated_Source\PSoC4/INT_Buttons.c **** *   None
 270:Generated_Source\PSoC4/INT_Buttons.c **** *
 271:Generated_Source\PSoC4/INT_Buttons.c **** * Return:
 272:Generated_Source\PSoC4/INT_Buttons.c **** *   Priority of the interrupt, 0 being the highest priority
 273:Generated_Source\PSoC4/INT_Buttons.c **** *    PSoC 3 and PSoC 5LP: Priority is from 0 to 7.
 274:Generated_Source\PSoC4/INT_Buttons.c **** *    PSoC 4: Priority is from 0 to 3.
 275:Generated_Source\PSoC4/INT_Buttons.c **** *
 276:Generated_Source\PSoC4/INT_Buttons.c **** *******************************************************************************/
 277:Generated_Source\PSoC4/INT_Buttons.c **** uint8 INT_Buttons_GetPriority(void)
 278:Generated_Source\PSoC4/INT_Buttons.c **** {
 311              		.loc 1 278 0
 312              		.cfi_startproc
 313              		@ args = 0, pretend = 0, frame = 8
 314              		@ frame_needed = 1, uses_anonymous_args = 0
 315 0000 80B5     		push	{r7, lr}
 316              		.cfi_def_cfa_offset 8
 317              		.cfi_offset 7, -8
 318              		.cfi_offset 14, -4
 319 0002 82B0     		sub	sp, sp, #8
 320              		.cfi_def_cfa_offset 16
 321 0004 00AF     		add	r7, sp, #0
 322              		.cfi_def_cfa_register 7
 279:Generated_Source\PSoC4/INT_Buttons.c ****     uint32 priority;
 280:Generated_Source\PSoC4/INT_Buttons.c **** 	uint32 priorityOffset = ((INT_Buttons__INTC_NUMBER % 4u) * 8u) + 6u;
 323              		.loc 1 280 0
 324 0006 1623     		movs	r3, #22
 325 0008 7B60     		str	r3, [r7, #4]
 281:Generated_Source\PSoC4/INT_Buttons.c **** 
 282:Generated_Source\PSoC4/INT_Buttons.c ****     priority = (*INT_Buttons_INTC_PRIOR & INT_Buttons__INTC_PRIOR_MASK) >> priorityOffset;
 326              		.loc 1 282 0
 327 000a 074B     		ldr	r3, .L21
 328 000c 1A68     		ldr	r2, [r3]
 329 000e C023     		movs	r3, #192
 330 0010 1B04     		lsls	r3, r3, #16
 331 0012 1A40     		ands	r2, r3
 332 0014 7B68     		ldr	r3, [r7, #4]
 333 0016 DA40     		lsrs	r2, r2, r3
 334 0018 1300     		movs	r3, r2
 335 001a 3B60     		str	r3, [r7]
 283:Generated_Source\PSoC4/INT_Buttons.c **** 
 284:Generated_Source\PSoC4/INT_Buttons.c ****     return (uint8)priority;
 336              		.loc 1 284 0
 337 001c 3B68     		ldr	r3, [r7]
 338 001e DBB2     		uxtb	r3, r3
 285:Generated_Source\PSoC4/INT_Buttons.c **** }
 339              		.loc 1 285 0
 340 0020 1800     		movs	r0, r3
 341 0022 BD46     		mov	sp, r7
ARM GAS  C:\Users\Alex\AppData\Local\Temp\ccO66uyN.s 			page 12


 342 0024 02B0     		add	sp, sp, #8
 343              		@ sp needed
 344 0026 80BD     		pop	{r7, pc}
 345              	.L22:
 346              		.align	2
 347              	.L21:
 348 0028 00E400E0 		.word	-536812544
 349              		.cfi_endproc
 350              	.LFE9:
 351              		.size	INT_Buttons_GetPriority, .-INT_Buttons_GetPriority
 352              		.section	.text.INT_Buttons_Enable,"ax",%progbits
 353              		.align	2
 354              		.global	INT_Buttons_Enable
 355              		.code	16
 356              		.thumb_func
 357              		.type	INT_Buttons_Enable, %function
 358              	INT_Buttons_Enable:
 359              	.LFB10:
 286:Generated_Source\PSoC4/INT_Buttons.c **** 
 287:Generated_Source\PSoC4/INT_Buttons.c **** 
 288:Generated_Source\PSoC4/INT_Buttons.c **** /*******************************************************************************
 289:Generated_Source\PSoC4/INT_Buttons.c **** * Function Name: INT_Buttons_Enable
 290:Generated_Source\PSoC4/INT_Buttons.c **** ********************************************************************************
 291:Generated_Source\PSoC4/INT_Buttons.c **** *
 292:Generated_Source\PSoC4/INT_Buttons.c **** * Summary:
 293:Generated_Source\PSoC4/INT_Buttons.c **** *   Enables the interrupt to the interrupt controller. Do not call this function
 294:Generated_Source\PSoC4/INT_Buttons.c **** *   unless ISR_Start() has been called or the functionality of the ISR_Start() 
 295:Generated_Source\PSoC4/INT_Buttons.c **** *   function, which sets the vector and the priority, has been called.
 296:Generated_Source\PSoC4/INT_Buttons.c **** *
 297:Generated_Source\PSoC4/INT_Buttons.c **** * Parameters:
 298:Generated_Source\PSoC4/INT_Buttons.c **** *   None
 299:Generated_Source\PSoC4/INT_Buttons.c **** *
 300:Generated_Source\PSoC4/INT_Buttons.c **** * Return:
 301:Generated_Source\PSoC4/INT_Buttons.c **** *   None
 302:Generated_Source\PSoC4/INT_Buttons.c **** *
 303:Generated_Source\PSoC4/INT_Buttons.c **** *******************************************************************************/
 304:Generated_Source\PSoC4/INT_Buttons.c **** void INT_Buttons_Enable(void)
 305:Generated_Source\PSoC4/INT_Buttons.c **** {
 360              		.loc 1 305 0
 361              		.cfi_startproc
 362              		@ args = 0, pretend = 0, frame = 0
 363              		@ frame_needed = 1, uses_anonymous_args = 0
 364 0000 80B5     		push	{r7, lr}
 365              		.cfi_def_cfa_offset 8
 366              		.cfi_offset 7, -8
 367              		.cfi_offset 14, -4
 368 0002 00AF     		add	r7, sp, #0
 369              		.cfi_def_cfa_register 7
 306:Generated_Source\PSoC4/INT_Buttons.c ****     /* Enable the general interrupt. */
 307:Generated_Source\PSoC4/INT_Buttons.c ****     *INT_Buttons_INTC_SET_EN = INT_Buttons__INTC_MASK;
 370              		.loc 1 307 0
 371 0004 024B     		ldr	r3, .L24
 372 0006 0422     		movs	r2, #4
 373 0008 1A60     		str	r2, [r3]
 308:Generated_Source\PSoC4/INT_Buttons.c **** }
 374              		.loc 1 308 0
 375 000a C046     		nop
ARM GAS  C:\Users\Alex\AppData\Local\Temp\ccO66uyN.s 			page 13


 376 000c BD46     		mov	sp, r7
 377              		@ sp needed
 378 000e 80BD     		pop	{r7, pc}
 379              	.L25:
 380              		.align	2
 381              	.L24:
 382 0010 00E100E0 		.word	-536813312
 383              		.cfi_endproc
 384              	.LFE10:
 385              		.size	INT_Buttons_Enable, .-INT_Buttons_Enable
 386              		.section	.text.INT_Buttons_GetState,"ax",%progbits
 387              		.align	2
 388              		.global	INT_Buttons_GetState
 389              		.code	16
 390              		.thumb_func
 391              		.type	INT_Buttons_GetState, %function
 392              	INT_Buttons_GetState:
 393              	.LFB11:
 309:Generated_Source\PSoC4/INT_Buttons.c **** 
 310:Generated_Source\PSoC4/INT_Buttons.c **** 
 311:Generated_Source\PSoC4/INT_Buttons.c **** /*******************************************************************************
 312:Generated_Source\PSoC4/INT_Buttons.c **** * Function Name: INT_Buttons_GetState
 313:Generated_Source\PSoC4/INT_Buttons.c **** ********************************************************************************
 314:Generated_Source\PSoC4/INT_Buttons.c **** *
 315:Generated_Source\PSoC4/INT_Buttons.c **** * Summary:
 316:Generated_Source\PSoC4/INT_Buttons.c **** *   Gets the state (enabled, disabled) of the Interrupt.
 317:Generated_Source\PSoC4/INT_Buttons.c **** *
 318:Generated_Source\PSoC4/INT_Buttons.c **** * Parameters:
 319:Generated_Source\PSoC4/INT_Buttons.c **** *   None
 320:Generated_Source\PSoC4/INT_Buttons.c **** *
 321:Generated_Source\PSoC4/INT_Buttons.c **** * Return:
 322:Generated_Source\PSoC4/INT_Buttons.c **** *   1 if enabled, 0 if disabled.
 323:Generated_Source\PSoC4/INT_Buttons.c **** *
 324:Generated_Source\PSoC4/INT_Buttons.c **** *******************************************************************************/
 325:Generated_Source\PSoC4/INT_Buttons.c **** uint8 INT_Buttons_GetState(void)
 326:Generated_Source\PSoC4/INT_Buttons.c **** {
 394              		.loc 1 326 0
 395              		.cfi_startproc
 396              		@ args = 0, pretend = 0, frame = 0
 397              		@ frame_needed = 1, uses_anonymous_args = 0
 398 0000 80B5     		push	{r7, lr}
 399              		.cfi_def_cfa_offset 8
 400              		.cfi_offset 7, -8
 401              		.cfi_offset 14, -4
 402 0002 00AF     		add	r7, sp, #0
 403              		.cfi_def_cfa_register 7
 327:Generated_Source\PSoC4/INT_Buttons.c ****     /* Get the state of the general interrupt. */
 328:Generated_Source\PSoC4/INT_Buttons.c ****     return ((*INT_Buttons_INTC_SET_EN & (uint32)INT_Buttons__INTC_MASK) != 0u) ? 1u:0u;
 404              		.loc 1 328 0
 405 0004 054B     		ldr	r3, .L30
 406 0006 1B68     		ldr	r3, [r3]
 407 0008 0422     		movs	r2, #4
 408 000a 1340     		ands	r3, r2
 409 000c 01D0     		beq	.L27
 410              		.loc 1 328 0 is_stmt 0 discriminator 1
 411 000e 0123     		movs	r3, #1
 412 0010 00E0     		b	.L28
ARM GAS  C:\Users\Alex\AppData\Local\Temp\ccO66uyN.s 			page 14


 413              	.L27:
 414              		.loc 1 328 0 discriminator 2
 415 0012 0023     		movs	r3, #0
 416              	.L28:
 329:Generated_Source\PSoC4/INT_Buttons.c **** }
 417              		.loc 1 329 0 is_stmt 1 discriminator 4
 418 0014 1800     		movs	r0, r3
 419 0016 BD46     		mov	sp, r7
 420              		@ sp needed
 421 0018 80BD     		pop	{r7, pc}
 422              	.L31:
 423 001a C046     		.align	2
 424              	.L30:
 425 001c 00E100E0 		.word	-536813312
 426              		.cfi_endproc
 427              	.LFE11:
 428              		.size	INT_Buttons_GetState, .-INT_Buttons_GetState
 429              		.section	.text.INT_Buttons_Disable,"ax",%progbits
 430              		.align	2
 431              		.global	INT_Buttons_Disable
 432              		.code	16
 433              		.thumb_func
 434              		.type	INT_Buttons_Disable, %function
 435              	INT_Buttons_Disable:
 436              	.LFB12:
 330:Generated_Source\PSoC4/INT_Buttons.c **** 
 331:Generated_Source\PSoC4/INT_Buttons.c **** 
 332:Generated_Source\PSoC4/INT_Buttons.c **** /*******************************************************************************
 333:Generated_Source\PSoC4/INT_Buttons.c **** * Function Name: INT_Buttons_Disable
 334:Generated_Source\PSoC4/INT_Buttons.c **** ********************************************************************************
 335:Generated_Source\PSoC4/INT_Buttons.c **** *
 336:Generated_Source\PSoC4/INT_Buttons.c **** * Summary:
 337:Generated_Source\PSoC4/INT_Buttons.c **** *   Disables the Interrupt in the interrupt controller.
 338:Generated_Source\PSoC4/INT_Buttons.c **** *
 339:Generated_Source\PSoC4/INT_Buttons.c **** * Parameters:
 340:Generated_Source\PSoC4/INT_Buttons.c **** *   None
 341:Generated_Source\PSoC4/INT_Buttons.c **** *
 342:Generated_Source\PSoC4/INT_Buttons.c **** * Return:
 343:Generated_Source\PSoC4/INT_Buttons.c **** *   None
 344:Generated_Source\PSoC4/INT_Buttons.c **** *
 345:Generated_Source\PSoC4/INT_Buttons.c **** *******************************************************************************/
 346:Generated_Source\PSoC4/INT_Buttons.c **** void INT_Buttons_Disable(void)
 347:Generated_Source\PSoC4/INT_Buttons.c **** {
 437              		.loc 1 347 0
 438              		.cfi_startproc
 439              		@ args = 0, pretend = 0, frame = 0
 440              		@ frame_needed = 1, uses_anonymous_args = 0
 441 0000 80B5     		push	{r7, lr}
 442              		.cfi_def_cfa_offset 8
 443              		.cfi_offset 7, -8
 444              		.cfi_offset 14, -4
 445 0002 00AF     		add	r7, sp, #0
 446              		.cfi_def_cfa_register 7
 348:Generated_Source\PSoC4/INT_Buttons.c ****     /* Disable the general interrupt. */
 349:Generated_Source\PSoC4/INT_Buttons.c ****     *INT_Buttons_INTC_CLR_EN = INT_Buttons__INTC_MASK;
 447              		.loc 1 349 0
 448 0004 024B     		ldr	r3, .L33
ARM GAS  C:\Users\Alex\AppData\Local\Temp\ccO66uyN.s 			page 15


 449 0006 0422     		movs	r2, #4
 450 0008 1A60     		str	r2, [r3]
 350:Generated_Source\PSoC4/INT_Buttons.c **** }
 451              		.loc 1 350 0
 452 000a C046     		nop
 453 000c BD46     		mov	sp, r7
 454              		@ sp needed
 455 000e 80BD     		pop	{r7, pc}
 456              	.L34:
 457              		.align	2
 458              	.L33:
 459 0010 80E100E0 		.word	-536813184
 460              		.cfi_endproc
 461              	.LFE12:
 462              		.size	INT_Buttons_Disable, .-INT_Buttons_Disable
 463              		.section	.text.INT_Buttons_SetPending,"ax",%progbits
 464              		.align	2
 465              		.global	INT_Buttons_SetPending
 466              		.code	16
 467              		.thumb_func
 468              		.type	INT_Buttons_SetPending, %function
 469              	INT_Buttons_SetPending:
 470              	.LFB13:
 351:Generated_Source\PSoC4/INT_Buttons.c **** 
 352:Generated_Source\PSoC4/INT_Buttons.c **** 
 353:Generated_Source\PSoC4/INT_Buttons.c **** /*******************************************************************************
 354:Generated_Source\PSoC4/INT_Buttons.c **** * Function Name: INT_Buttons_SetPending
 355:Generated_Source\PSoC4/INT_Buttons.c **** ********************************************************************************
 356:Generated_Source\PSoC4/INT_Buttons.c **** *
 357:Generated_Source\PSoC4/INT_Buttons.c **** * Summary:
 358:Generated_Source\PSoC4/INT_Buttons.c **** *   Causes the Interrupt to enter the pending state, a software method of
 359:Generated_Source\PSoC4/INT_Buttons.c **** *   generating the interrupt.
 360:Generated_Source\PSoC4/INT_Buttons.c **** *
 361:Generated_Source\PSoC4/INT_Buttons.c **** * Parameters:
 362:Generated_Source\PSoC4/INT_Buttons.c **** *   None
 363:Generated_Source\PSoC4/INT_Buttons.c **** *
 364:Generated_Source\PSoC4/INT_Buttons.c **** * Return:
 365:Generated_Source\PSoC4/INT_Buttons.c **** *   None
 366:Generated_Source\PSoC4/INT_Buttons.c **** *
 367:Generated_Source\PSoC4/INT_Buttons.c **** * Side Effects:
 368:Generated_Source\PSoC4/INT_Buttons.c **** *   If interrupts are enabled and the interrupt is set up properly, the ISR is
 369:Generated_Source\PSoC4/INT_Buttons.c **** *   entered (depending on the priority of this interrupt and other pending 
 370:Generated_Source\PSoC4/INT_Buttons.c **** *   interrupts).
 371:Generated_Source\PSoC4/INT_Buttons.c **** *
 372:Generated_Source\PSoC4/INT_Buttons.c **** *******************************************************************************/
 373:Generated_Source\PSoC4/INT_Buttons.c **** void INT_Buttons_SetPending(void)
 374:Generated_Source\PSoC4/INT_Buttons.c **** {
 471              		.loc 1 374 0
 472              		.cfi_startproc
 473              		@ args = 0, pretend = 0, frame = 0
 474              		@ frame_needed = 1, uses_anonymous_args = 0
 475 0000 80B5     		push	{r7, lr}
 476              		.cfi_def_cfa_offset 8
 477              		.cfi_offset 7, -8
 478              		.cfi_offset 14, -4
 479 0002 00AF     		add	r7, sp, #0
 480              		.cfi_def_cfa_register 7
ARM GAS  C:\Users\Alex\AppData\Local\Temp\ccO66uyN.s 			page 16


 375:Generated_Source\PSoC4/INT_Buttons.c ****     *INT_Buttons_INTC_SET_PD = INT_Buttons__INTC_MASK;
 481              		.loc 1 375 0
 482 0004 024B     		ldr	r3, .L36
 483 0006 0422     		movs	r2, #4
 484 0008 1A60     		str	r2, [r3]
 376:Generated_Source\PSoC4/INT_Buttons.c **** }
 485              		.loc 1 376 0
 486 000a C046     		nop
 487 000c BD46     		mov	sp, r7
 488              		@ sp needed
 489 000e 80BD     		pop	{r7, pc}
 490              	.L37:
 491              		.align	2
 492              	.L36:
 493 0010 00E200E0 		.word	-536813056
 494              		.cfi_endproc
 495              	.LFE13:
 496              		.size	INT_Buttons_SetPending, .-INT_Buttons_SetPending
 497              		.section	.text.INT_Buttons_ClearPending,"ax",%progbits
 498              		.align	2
 499              		.global	INT_Buttons_ClearPending
 500              		.code	16
 501              		.thumb_func
 502              		.type	INT_Buttons_ClearPending, %function
 503              	INT_Buttons_ClearPending:
 504              	.LFB14:
 377:Generated_Source\PSoC4/INT_Buttons.c **** 
 378:Generated_Source\PSoC4/INT_Buttons.c **** 
 379:Generated_Source\PSoC4/INT_Buttons.c **** /*******************************************************************************
 380:Generated_Source\PSoC4/INT_Buttons.c **** * Function Name: INT_Buttons_ClearPending
 381:Generated_Source\PSoC4/INT_Buttons.c **** ********************************************************************************
 382:Generated_Source\PSoC4/INT_Buttons.c **** *
 383:Generated_Source\PSoC4/INT_Buttons.c **** * Summary:
 384:Generated_Source\PSoC4/INT_Buttons.c **** *   Clears a pending interrupt in the interrupt controller.
 385:Generated_Source\PSoC4/INT_Buttons.c **** *
 386:Generated_Source\PSoC4/INT_Buttons.c **** *   Note Some interrupt sources are clear-on-read and require the block 
 387:Generated_Source\PSoC4/INT_Buttons.c **** *   interrupt/status register to be read/cleared with the appropriate block API 
 388:Generated_Source\PSoC4/INT_Buttons.c **** *   (GPIO, UART, and so on). Otherwise the ISR will continue to remain in 
 389:Generated_Source\PSoC4/INT_Buttons.c **** *   pending state even though the interrupt itself is cleared using this API.
 390:Generated_Source\PSoC4/INT_Buttons.c **** *
 391:Generated_Source\PSoC4/INT_Buttons.c **** * Parameters:
 392:Generated_Source\PSoC4/INT_Buttons.c **** *   None
 393:Generated_Source\PSoC4/INT_Buttons.c **** *
 394:Generated_Source\PSoC4/INT_Buttons.c **** * Return:
 395:Generated_Source\PSoC4/INT_Buttons.c **** *   None
 396:Generated_Source\PSoC4/INT_Buttons.c **** *
 397:Generated_Source\PSoC4/INT_Buttons.c **** *******************************************************************************/
 398:Generated_Source\PSoC4/INT_Buttons.c **** void INT_Buttons_ClearPending(void)
 399:Generated_Source\PSoC4/INT_Buttons.c **** {
 505              		.loc 1 399 0
 506              		.cfi_startproc
 507              		@ args = 0, pretend = 0, frame = 0
 508              		@ frame_needed = 1, uses_anonymous_args = 0
 509 0000 80B5     		push	{r7, lr}
 510              		.cfi_def_cfa_offset 8
 511              		.cfi_offset 7, -8
 512              		.cfi_offset 14, -4
ARM GAS  C:\Users\Alex\AppData\Local\Temp\ccO66uyN.s 			page 17


 513 0002 00AF     		add	r7, sp, #0
 514              		.cfi_def_cfa_register 7
 400:Generated_Source\PSoC4/INT_Buttons.c ****     *INT_Buttons_INTC_CLR_PD = INT_Buttons__INTC_MASK;
 515              		.loc 1 400 0
 516 0004 024B     		ldr	r3, .L39
 517 0006 0422     		movs	r2, #4
 518 0008 1A60     		str	r2, [r3]
 401:Generated_Source\PSoC4/INT_Buttons.c **** }
 519              		.loc 1 401 0
 520 000a C046     		nop
 521 000c BD46     		mov	sp, r7
 522              		@ sp needed
 523 000e 80BD     		pop	{r7, pc}
 524              	.L40:
 525              		.align	2
 526              	.L39:
 527 0010 80E200E0 		.word	-536812928
 528              		.cfi_endproc
 529              	.LFE14:
 530              		.size	INT_Buttons_ClearPending, .-INT_Buttons_ClearPending
 531              		.text
 532              	.Letext0:
 533              		.file 2 "Generated_Source\\PSoC4/cytypes.h"
 534              		.section	.debug_info,"",%progbits
 535              	.Ldebug_info0:
 536 0000 49020000 		.4byte	0x249
 537 0004 0400     		.2byte	0x4
 538 0006 00000000 		.4byte	.Ldebug_abbrev0
 539 000a 04       		.byte	0x4
 540 000b 01       		.uleb128 0x1
 541 000c D1000000 		.4byte	.LASF34
 542 0010 0C       		.byte	0xc
 543 0011 AC000000 		.4byte	.LASF35
 544 0015 80010000 		.4byte	.LASF36
 545 0019 00000000 		.4byte	.Ldebug_ranges0+0
 546 001d 00000000 		.4byte	0
 547 0021 00000000 		.4byte	.Ldebug_line0
 548 0025 02       		.uleb128 0x2
 549 0026 01       		.byte	0x1
 550 0027 06       		.byte	0x6
 551 0028 FC020000 		.4byte	.LASF0
 552 002c 02       		.uleb128 0x2
 553 002d 01       		.byte	0x1
 554 002e 08       		.byte	0x8
 555 002f D8010000 		.4byte	.LASF1
 556 0033 02       		.uleb128 0x2
 557 0034 02       		.byte	0x2
 558 0035 05       		.byte	0x5
 559 0036 9F020000 		.4byte	.LASF2
 560 003a 02       		.uleb128 0x2
 561 003b 02       		.byte	0x2
 562 003c 07       		.byte	0x7
 563 003d 41000000 		.4byte	.LASF3
 564 0041 02       		.uleb128 0x2
 565 0042 04       		.byte	0x4
 566 0043 05       		.byte	0x5
 567 0044 CB020000 		.4byte	.LASF4
ARM GAS  C:\Users\Alex\AppData\Local\Temp\ccO66uyN.s 			page 18


 568 0048 02       		.uleb128 0x2
 569 0049 04       		.byte	0x4
 570 004a 07       		.byte	0x7
 571 004b 94000000 		.4byte	.LASF5
 572 004f 02       		.uleb128 0x2
 573 0050 08       		.byte	0x8
 574 0051 05       		.byte	0x5
 575 0052 67020000 		.4byte	.LASF6
 576 0056 02       		.uleb128 0x2
 577 0057 08       		.byte	0x8
 578 0058 07       		.byte	0x7
 579 0059 FB010000 		.4byte	.LASF7
 580 005d 03       		.uleb128 0x3
 581 005e 04       		.byte	0x4
 582 005f 05       		.byte	0x5
 583 0060 696E7400 		.ascii	"int\000"
 584 0064 02       		.uleb128 0x2
 585 0065 04       		.byte	0x4
 586 0066 07       		.byte	0x7
 587 0067 E6010000 		.4byte	.LASF8
 588 006b 04       		.uleb128 0x4
 589 006c A6000000 		.4byte	.LASF9
 590 0070 02       		.byte	0x2
 591 0071 D201     		.2byte	0x1d2
 592 0073 2C000000 		.4byte	0x2c
 593 0077 04       		.uleb128 0x4
 594 0078 B9010000 		.4byte	.LASF10
 595 007c 02       		.byte	0x2
 596 007d D401     		.2byte	0x1d4
 597 007f 48000000 		.4byte	0x48
 598 0083 02       		.uleb128 0x2
 599 0084 04       		.byte	0x4
 600 0085 04       		.byte	0x4
 601 0086 69000000 		.4byte	.LASF11
 602 008a 02       		.uleb128 0x2
 603 008b 08       		.byte	0x8
 604 008c 04       		.byte	0x4
 605 008d 79010000 		.4byte	.LASF12
 606 0091 02       		.uleb128 0x2
 607 0092 01       		.byte	0x1
 608 0093 08       		.byte	0x8
 609 0094 D4020000 		.4byte	.LASF13
 610 0098 04       		.uleb128 0x4
 611 0099 00000000 		.4byte	.LASF14
 612 009d 02       		.byte	0x2
 613 009e 7E02     		.2byte	0x27e
 614 00a0 A4000000 		.4byte	0xa4
 615 00a4 05       		.uleb128 0x5
 616 00a5 77000000 		.4byte	0x77
 617 00a9 04       		.uleb128 0x4
 618 00aa 3F020000 		.4byte	.LASF15
 619 00ae 02       		.byte	0x2
 620 00af 8E02     		.2byte	0x28e
 621 00b1 B5000000 		.4byte	0xb5
 622 00b5 06       		.uleb128 0x6
 623 00b6 04       		.byte	0x4
 624 00b7 BB000000 		.4byte	0xbb
ARM GAS  C:\Users\Alex\AppData\Local\Temp\ccO66uyN.s 			page 19


 625 00bb 07       		.uleb128 0x7
 626 00bc 02       		.uleb128 0x2
 627 00bd 08       		.byte	0x8
 628 00be 04       		.byte	0x4
 629 00bf F0020000 		.4byte	.LASF16
 630 00c3 02       		.uleb128 0x2
 631 00c4 04       		.byte	0x4
 632 00c5 07       		.byte	0x7
 633 00c6 4C020000 		.4byte	.LASF17
 634 00ca 08       		.uleb128 0x8
 635 00cb 55020000 		.4byte	.LASF18
 636 00cf 01       		.byte	0x1
 637 00d0 38       		.byte	0x38
 638 00d1 00000000 		.4byte	.LFB2
 639 00d5 24000000 		.4byte	.LFE2-.LFB2
 640 00d9 01       		.uleb128 0x1
 641 00da 9C       		.byte	0x9c
 642 00db 09       		.uleb128 0x9
 643 00dc 2B020000 		.4byte	.LASF21
 644 00e0 01       		.byte	0x1
 645 00e1 63       		.byte	0x63
 646 00e2 00000000 		.4byte	.LFB3
 647 00e6 26000000 		.4byte	.LFE3-.LFB3
 648 00ea 01       		.uleb128 0x1
 649 00eb 9C       		.byte	0x9c
 650 00ec FF000000 		.4byte	0xff
 651 00f0 0A       		.uleb128 0xa
 652 00f1 F3010000 		.4byte	.LASF23
 653 00f5 01       		.byte	0x1
 654 00f6 63       		.byte	0x63
 655 00f7 A9000000 		.4byte	0xa9
 656 00fb 02       		.uleb128 0x2
 657 00fc 91       		.byte	0x91
 658 00fd 74       		.sleb128 -12
 659 00fe 00       		.byte	0
 660 00ff 08       		.uleb128 0x8
 661 0100 68010000 		.4byte	.LASF19
 662 0104 01       		.byte	0x1
 663 0105 81       		.byte	0x81
 664 0106 00000000 		.4byte	.LFB4
 665 010a 1C000000 		.4byte	.LFE4-.LFB4
 666 010e 01       		.uleb128 0x1
 667 010f 9C       		.byte	0x9c
 668 0110 0B       		.uleb128 0xb
 669 0111 75020000 		.4byte	.LASF20
 670 0115 01       		.byte	0x1
 671 0116 9F       		.byte	0x9f
 672 0117 00000000 		.4byte	.LFB5
 673 011b 0A000000 		.4byte	.LFE5-.LFB5
 674 011f 01       		.uleb128 0x1
 675 0120 9C       		.byte	0x9c
 676 0121 0C       		.uleb128 0xc
 677 0122 6F000000 		.4byte	.LASF22
 678 0126 01       		.byte	0x1
 679 0127 C7       		.byte	0xc7
 680 0128 00000000 		.4byte	.LFB6
 681 012c 1C000000 		.4byte	.LFE6-.LFB6
ARM GAS  C:\Users\Alex\AppData\Local\Temp\ccO66uyN.s 			page 20


 682 0130 01       		.uleb128 0x1
 683 0131 9C       		.byte	0x9c
 684 0132 45010000 		.4byte	0x145
 685 0136 0A       		.uleb128 0xa
 686 0137 F3010000 		.4byte	.LASF23
 687 013b 01       		.byte	0x1
 688 013c C7       		.byte	0xc7
 689 013d A9000000 		.4byte	0xa9
 690 0141 02       		.uleb128 0x2
 691 0142 91       		.byte	0x91
 692 0143 74       		.sleb128 -12
 693 0144 00       		.byte	0
 694 0145 0D       		.uleb128 0xd
 695 0146 06000000 		.4byte	.LASF29
 696 014a 01       		.byte	0x1
 697 014b DB       		.byte	0xdb
 698 014c A9000000 		.4byte	0xa9
 699 0150 00000000 		.4byte	.LFB7
 700 0154 14000000 		.4byte	.LFE7-.LFB7
 701 0158 01       		.uleb128 0x1
 702 0159 9C       		.byte	0x9c
 703 015a 09       		.uleb128 0x9
 704 015b C0010000 		.4byte	.LASF24
 705 015f 01       		.byte	0x1
 706 0160 F9       		.byte	0xf9
 707 0161 00000000 		.4byte	.LFB8
 708 0165 50000000 		.4byte	.LFE8-.LFB8
 709 0169 01       		.uleb128 0x1
 710 016a 9C       		.byte	0x9c
 711 016b 9A010000 		.4byte	0x19a
 712 016f 0A       		.uleb128 0xa
 713 0170 5F010000 		.4byte	.LASF25
 714 0174 01       		.byte	0x1
 715 0175 F9       		.byte	0xf9
 716 0176 6B000000 		.4byte	0x6b
 717 017a 02       		.uleb128 0x2
 718 017b 91       		.byte	0x91
 719 017c 67       		.sleb128 -25
 720 017d 0E       		.uleb128 0xe
 721 017e 85000000 		.4byte	.LASF26
 722 0182 01       		.byte	0x1
 723 0183 FB       		.byte	0xfb
 724 0184 6B000000 		.4byte	0x6b
 725 0188 02       		.uleb128 0x2
 726 0189 91       		.byte	0x91
 727 018a 6B       		.sleb128 -21
 728 018b 0E       		.uleb128 0xe
 729 018c BC020000 		.4byte	.LASF27
 730 0190 01       		.byte	0x1
 731 0191 FC       		.byte	0xfc
 732 0192 77000000 		.4byte	0x77
 733 0196 02       		.uleb128 0x2
 734 0197 91       		.byte	0x91
 735 0198 6C       		.sleb128 -20
 736 0199 00       		.byte	0
 737 019a 0F       		.uleb128 0xf
 738 019b 29000000 		.4byte	.LASF37
ARM GAS  C:\Users\Alex\AppData\Local\Temp\ccO66uyN.s 			page 21


 739 019f 01       		.byte	0x1
 740 01a0 1501     		.2byte	0x115
 741 01a2 6B000000 		.4byte	0x6b
 742 01a6 00000000 		.4byte	.LFB9
 743 01aa 2C000000 		.4byte	.LFE9-.LFB9
 744 01ae 01       		.uleb128 0x1
 745 01af 9C       		.byte	0x9c
 746 01b0 D3010000 		.4byte	0x1d3
 747 01b4 10       		.uleb128 0x10
 748 01b5 5F010000 		.4byte	.LASF25
 749 01b9 01       		.byte	0x1
 750 01ba 1701     		.2byte	0x117
 751 01bc 77000000 		.4byte	0x77
 752 01c0 02       		.uleb128 0x2
 753 01c1 91       		.byte	0x91
 754 01c2 70       		.sleb128 -16
 755 01c3 10       		.uleb128 0x10
 756 01c4 BC020000 		.4byte	.LASF27
 757 01c8 01       		.byte	0x1
 758 01c9 1801     		.2byte	0x118
 759 01cb 77000000 		.4byte	0x77
 760 01cf 02       		.uleb128 0x2
 761 01d0 91       		.byte	0x91
 762 01d1 74       		.sleb128 -12
 763 01d2 00       		.byte	0
 764 01d3 11       		.uleb128 0x11
 765 01d4 A9020000 		.4byte	.LASF28
 766 01d8 01       		.byte	0x1
 767 01d9 3001     		.2byte	0x130
 768 01db 00000000 		.4byte	.LFB10
 769 01df 14000000 		.4byte	.LFE10-.LFB10
 770 01e3 01       		.uleb128 0x1
 771 01e4 9C       		.byte	0x9c
 772 01e5 12       		.uleb128 0x12
 773 01e6 54000000 		.4byte	.LASF30
 774 01ea 01       		.byte	0x1
 775 01eb 4501     		.2byte	0x145
 776 01ed 6B000000 		.4byte	0x6b
 777 01f1 00000000 		.4byte	.LFB11
 778 01f5 20000000 		.4byte	.LFE11-.LFB11
 779 01f9 01       		.uleb128 0x1
 780 01fa 9C       		.byte	0x9c
 781 01fb 11       		.uleb128 0x11
 782 01fc 8B020000 		.4byte	.LASF31
 783 0200 01       		.byte	0x1
 784 0201 5A01     		.2byte	0x15a
 785 0203 00000000 		.4byte	.LFB12
 786 0207 14000000 		.4byte	.LFE12-.LFB12
 787 020b 01       		.uleb128 0x1
 788 020c 9C       		.byte	0x9c
 789 020d 11       		.uleb128 0x11
 790 020e D9020000 		.4byte	.LASF32
 791 0212 01       		.byte	0x1
 792 0213 7501     		.2byte	0x175
 793 0215 00000000 		.4byte	.LFB13
 794 0219 14000000 		.4byte	.LFE13-.LFB13
 795 021d 01       		.uleb128 0x1
ARM GAS  C:\Users\Alex\AppData\Local\Temp\ccO66uyN.s 			page 22


 796 021e 9C       		.byte	0x9c
 797 021f 11       		.uleb128 0x11
 798 0220 12020000 		.4byte	.LASF33
 799 0224 01       		.byte	0x1
 800 0225 8E01     		.2byte	0x18e
 801 0227 00000000 		.4byte	.LFB14
 802 022b 14000000 		.4byte	.LFE14-.LFB14
 803 022f 01       		.uleb128 0x1
 804 0230 9C       		.byte	0x9c
 805 0231 13       		.uleb128 0x13
 806 0232 A9000000 		.4byte	0xa9
 807 0236 41020000 		.4byte	0x241
 808 023a 14       		.uleb128 0x14
 809 023b C3000000 		.4byte	0xc3
 810 023f 2F       		.byte	0x2f
 811 0240 00       		.byte	0
 812 0241 15       		.uleb128 0x15
 813 0242 1C000000 		.4byte	.LASF38
 814 0246 01       		.byte	0x1
 815 0247 21       		.byte	0x21
 816 0248 31020000 		.4byte	0x231
 817 024c 00       		.byte	0
 818              		.section	.debug_abbrev,"",%progbits
 819              	.Ldebug_abbrev0:
 820 0000 01       		.uleb128 0x1
 821 0001 11       		.uleb128 0x11
 822 0002 01       		.byte	0x1
 823 0003 25       		.uleb128 0x25
 824 0004 0E       		.uleb128 0xe
 825 0005 13       		.uleb128 0x13
 826 0006 0B       		.uleb128 0xb
 827 0007 03       		.uleb128 0x3
 828 0008 0E       		.uleb128 0xe
 829 0009 1B       		.uleb128 0x1b
 830 000a 0E       		.uleb128 0xe
 831 000b 55       		.uleb128 0x55
 832 000c 17       		.uleb128 0x17
 833 000d 11       		.uleb128 0x11
 834 000e 01       		.uleb128 0x1
 835 000f 10       		.uleb128 0x10
 836 0010 17       		.uleb128 0x17
 837 0011 00       		.byte	0
 838 0012 00       		.byte	0
 839 0013 02       		.uleb128 0x2
 840 0014 24       		.uleb128 0x24
 841 0015 00       		.byte	0
 842 0016 0B       		.uleb128 0xb
 843 0017 0B       		.uleb128 0xb
 844 0018 3E       		.uleb128 0x3e
 845 0019 0B       		.uleb128 0xb
 846 001a 03       		.uleb128 0x3
 847 001b 0E       		.uleb128 0xe
 848 001c 00       		.byte	0
 849 001d 00       		.byte	0
 850 001e 03       		.uleb128 0x3
 851 001f 24       		.uleb128 0x24
 852 0020 00       		.byte	0
ARM GAS  C:\Users\Alex\AppData\Local\Temp\ccO66uyN.s 			page 23


 853 0021 0B       		.uleb128 0xb
 854 0022 0B       		.uleb128 0xb
 855 0023 3E       		.uleb128 0x3e
 856 0024 0B       		.uleb128 0xb
 857 0025 03       		.uleb128 0x3
 858 0026 08       		.uleb128 0x8
 859 0027 00       		.byte	0
 860 0028 00       		.byte	0
 861 0029 04       		.uleb128 0x4
 862 002a 16       		.uleb128 0x16
 863 002b 00       		.byte	0
 864 002c 03       		.uleb128 0x3
 865 002d 0E       		.uleb128 0xe
 866 002e 3A       		.uleb128 0x3a
 867 002f 0B       		.uleb128 0xb
 868 0030 3B       		.uleb128 0x3b
 869 0031 05       		.uleb128 0x5
 870 0032 49       		.uleb128 0x49
 871 0033 13       		.uleb128 0x13
 872 0034 00       		.byte	0
 873 0035 00       		.byte	0
 874 0036 05       		.uleb128 0x5
 875 0037 35       		.uleb128 0x35
 876 0038 00       		.byte	0
 877 0039 49       		.uleb128 0x49
 878 003a 13       		.uleb128 0x13
 879 003b 00       		.byte	0
 880 003c 00       		.byte	0
 881 003d 06       		.uleb128 0x6
 882 003e 0F       		.uleb128 0xf
 883 003f 00       		.byte	0
 884 0040 0B       		.uleb128 0xb
 885 0041 0B       		.uleb128 0xb
 886 0042 49       		.uleb128 0x49
 887 0043 13       		.uleb128 0x13
 888 0044 00       		.byte	0
 889 0045 00       		.byte	0
 890 0046 07       		.uleb128 0x7
 891 0047 15       		.uleb128 0x15
 892 0048 00       		.byte	0
 893 0049 27       		.uleb128 0x27
 894 004a 19       		.uleb128 0x19
 895 004b 00       		.byte	0
 896 004c 00       		.byte	0
 897 004d 08       		.uleb128 0x8
 898 004e 2E       		.uleb128 0x2e
 899 004f 00       		.byte	0
 900 0050 3F       		.uleb128 0x3f
 901 0051 19       		.uleb128 0x19
 902 0052 03       		.uleb128 0x3
 903 0053 0E       		.uleb128 0xe
 904 0054 3A       		.uleb128 0x3a
 905 0055 0B       		.uleb128 0xb
 906 0056 3B       		.uleb128 0x3b
 907 0057 0B       		.uleb128 0xb
 908 0058 27       		.uleb128 0x27
 909 0059 19       		.uleb128 0x19
ARM GAS  C:\Users\Alex\AppData\Local\Temp\ccO66uyN.s 			page 24


 910 005a 11       		.uleb128 0x11
 911 005b 01       		.uleb128 0x1
 912 005c 12       		.uleb128 0x12
 913 005d 06       		.uleb128 0x6
 914 005e 40       		.uleb128 0x40
 915 005f 18       		.uleb128 0x18
 916 0060 9642     		.uleb128 0x2116
 917 0062 19       		.uleb128 0x19
 918 0063 00       		.byte	0
 919 0064 00       		.byte	0
 920 0065 09       		.uleb128 0x9
 921 0066 2E       		.uleb128 0x2e
 922 0067 01       		.byte	0x1
 923 0068 3F       		.uleb128 0x3f
 924 0069 19       		.uleb128 0x19
 925 006a 03       		.uleb128 0x3
 926 006b 0E       		.uleb128 0xe
 927 006c 3A       		.uleb128 0x3a
 928 006d 0B       		.uleb128 0xb
 929 006e 3B       		.uleb128 0x3b
 930 006f 0B       		.uleb128 0xb
 931 0070 27       		.uleb128 0x27
 932 0071 19       		.uleb128 0x19
 933 0072 11       		.uleb128 0x11
 934 0073 01       		.uleb128 0x1
 935 0074 12       		.uleb128 0x12
 936 0075 06       		.uleb128 0x6
 937 0076 40       		.uleb128 0x40
 938 0077 18       		.uleb128 0x18
 939 0078 9642     		.uleb128 0x2116
 940 007a 19       		.uleb128 0x19
 941 007b 01       		.uleb128 0x1
 942 007c 13       		.uleb128 0x13
 943 007d 00       		.byte	0
 944 007e 00       		.byte	0
 945 007f 0A       		.uleb128 0xa
 946 0080 05       		.uleb128 0x5
 947 0081 00       		.byte	0
 948 0082 03       		.uleb128 0x3
 949 0083 0E       		.uleb128 0xe
 950 0084 3A       		.uleb128 0x3a
 951 0085 0B       		.uleb128 0xb
 952 0086 3B       		.uleb128 0x3b
 953 0087 0B       		.uleb128 0xb
 954 0088 49       		.uleb128 0x49
 955 0089 13       		.uleb128 0x13
 956 008a 02       		.uleb128 0x2
 957 008b 18       		.uleb128 0x18
 958 008c 00       		.byte	0
 959 008d 00       		.byte	0
 960 008e 0B       		.uleb128 0xb
 961 008f 2E       		.uleb128 0x2e
 962 0090 00       		.byte	0
 963 0091 3F       		.uleb128 0x3f
 964 0092 19       		.uleb128 0x19
 965 0093 03       		.uleb128 0x3
 966 0094 0E       		.uleb128 0xe
ARM GAS  C:\Users\Alex\AppData\Local\Temp\ccO66uyN.s 			page 25


 967 0095 3A       		.uleb128 0x3a
 968 0096 0B       		.uleb128 0xb
 969 0097 3B       		.uleb128 0x3b
 970 0098 0B       		.uleb128 0xb
 971 0099 27       		.uleb128 0x27
 972 009a 19       		.uleb128 0x19
 973 009b 11       		.uleb128 0x11
 974 009c 01       		.uleb128 0x1
 975 009d 12       		.uleb128 0x12
 976 009e 06       		.uleb128 0x6
 977 009f 40       		.uleb128 0x40
 978 00a0 18       		.uleb128 0x18
 979 00a1 9742     		.uleb128 0x2117
 980 00a3 19       		.uleb128 0x19
 981 00a4 00       		.byte	0
 982 00a5 00       		.byte	0
 983 00a6 0C       		.uleb128 0xc
 984 00a7 2E       		.uleb128 0x2e
 985 00a8 01       		.byte	0x1
 986 00a9 3F       		.uleb128 0x3f
 987 00aa 19       		.uleb128 0x19
 988 00ab 03       		.uleb128 0x3
 989 00ac 0E       		.uleb128 0xe
 990 00ad 3A       		.uleb128 0x3a
 991 00ae 0B       		.uleb128 0xb
 992 00af 3B       		.uleb128 0x3b
 993 00b0 0B       		.uleb128 0xb
 994 00b1 27       		.uleb128 0x27
 995 00b2 19       		.uleb128 0x19
 996 00b3 11       		.uleb128 0x11
 997 00b4 01       		.uleb128 0x1
 998 00b5 12       		.uleb128 0x12
 999 00b6 06       		.uleb128 0x6
 1000 00b7 40       		.uleb128 0x40
 1001 00b8 18       		.uleb128 0x18
 1002 00b9 9742     		.uleb128 0x2117
 1003 00bb 19       		.uleb128 0x19
 1004 00bc 01       		.uleb128 0x1
 1005 00bd 13       		.uleb128 0x13
 1006 00be 00       		.byte	0
 1007 00bf 00       		.byte	0
 1008 00c0 0D       		.uleb128 0xd
 1009 00c1 2E       		.uleb128 0x2e
 1010 00c2 00       		.byte	0
 1011 00c3 3F       		.uleb128 0x3f
 1012 00c4 19       		.uleb128 0x19
 1013 00c5 03       		.uleb128 0x3
 1014 00c6 0E       		.uleb128 0xe
 1015 00c7 3A       		.uleb128 0x3a
 1016 00c8 0B       		.uleb128 0xb
 1017 00c9 3B       		.uleb128 0x3b
 1018 00ca 0B       		.uleb128 0xb
 1019 00cb 27       		.uleb128 0x27
 1020 00cc 19       		.uleb128 0x19
 1021 00cd 49       		.uleb128 0x49
 1022 00ce 13       		.uleb128 0x13
 1023 00cf 11       		.uleb128 0x11
ARM GAS  C:\Users\Alex\AppData\Local\Temp\ccO66uyN.s 			page 26


 1024 00d0 01       		.uleb128 0x1
 1025 00d1 12       		.uleb128 0x12
 1026 00d2 06       		.uleb128 0x6
 1027 00d3 40       		.uleb128 0x40
 1028 00d4 18       		.uleb128 0x18
 1029 00d5 9742     		.uleb128 0x2117
 1030 00d7 19       		.uleb128 0x19
 1031 00d8 00       		.byte	0
 1032 00d9 00       		.byte	0
 1033 00da 0E       		.uleb128 0xe
 1034 00db 34       		.uleb128 0x34
 1035 00dc 00       		.byte	0
 1036 00dd 03       		.uleb128 0x3
 1037 00de 0E       		.uleb128 0xe
 1038 00df 3A       		.uleb128 0x3a
 1039 00e0 0B       		.uleb128 0xb
 1040 00e1 3B       		.uleb128 0x3b
 1041 00e2 0B       		.uleb128 0xb
 1042 00e3 49       		.uleb128 0x49
 1043 00e4 13       		.uleb128 0x13
 1044 00e5 02       		.uleb128 0x2
 1045 00e6 18       		.uleb128 0x18
 1046 00e7 00       		.byte	0
 1047 00e8 00       		.byte	0
 1048 00e9 0F       		.uleb128 0xf
 1049 00ea 2E       		.uleb128 0x2e
 1050 00eb 01       		.byte	0x1
 1051 00ec 3F       		.uleb128 0x3f
 1052 00ed 19       		.uleb128 0x19
 1053 00ee 03       		.uleb128 0x3
 1054 00ef 0E       		.uleb128 0xe
 1055 00f0 3A       		.uleb128 0x3a
 1056 00f1 0B       		.uleb128 0xb
 1057 00f2 3B       		.uleb128 0x3b
 1058 00f3 05       		.uleb128 0x5
 1059 00f4 27       		.uleb128 0x27
 1060 00f5 19       		.uleb128 0x19
 1061 00f6 49       		.uleb128 0x49
 1062 00f7 13       		.uleb128 0x13
 1063 00f8 11       		.uleb128 0x11
 1064 00f9 01       		.uleb128 0x1
 1065 00fa 12       		.uleb128 0x12
 1066 00fb 06       		.uleb128 0x6
 1067 00fc 40       		.uleb128 0x40
 1068 00fd 18       		.uleb128 0x18
 1069 00fe 9742     		.uleb128 0x2117
 1070 0100 19       		.uleb128 0x19
 1071 0101 01       		.uleb128 0x1
 1072 0102 13       		.uleb128 0x13
 1073 0103 00       		.byte	0
 1074 0104 00       		.byte	0
 1075 0105 10       		.uleb128 0x10
 1076 0106 34       		.uleb128 0x34
 1077 0107 00       		.byte	0
 1078 0108 03       		.uleb128 0x3
 1079 0109 0E       		.uleb128 0xe
 1080 010a 3A       		.uleb128 0x3a
ARM GAS  C:\Users\Alex\AppData\Local\Temp\ccO66uyN.s 			page 27


 1081 010b 0B       		.uleb128 0xb
 1082 010c 3B       		.uleb128 0x3b
 1083 010d 05       		.uleb128 0x5
 1084 010e 49       		.uleb128 0x49
 1085 010f 13       		.uleb128 0x13
 1086 0110 02       		.uleb128 0x2
 1087 0111 18       		.uleb128 0x18
 1088 0112 00       		.byte	0
 1089 0113 00       		.byte	0
 1090 0114 11       		.uleb128 0x11
 1091 0115 2E       		.uleb128 0x2e
 1092 0116 00       		.byte	0
 1093 0117 3F       		.uleb128 0x3f
 1094 0118 19       		.uleb128 0x19
 1095 0119 03       		.uleb128 0x3
 1096 011a 0E       		.uleb128 0xe
 1097 011b 3A       		.uleb128 0x3a
 1098 011c 0B       		.uleb128 0xb
 1099 011d 3B       		.uleb128 0x3b
 1100 011e 05       		.uleb128 0x5
 1101 011f 27       		.uleb128 0x27
 1102 0120 19       		.uleb128 0x19
 1103 0121 11       		.uleb128 0x11
 1104 0122 01       		.uleb128 0x1
 1105 0123 12       		.uleb128 0x12
 1106 0124 06       		.uleb128 0x6
 1107 0125 40       		.uleb128 0x40
 1108 0126 18       		.uleb128 0x18
 1109 0127 9742     		.uleb128 0x2117
 1110 0129 19       		.uleb128 0x19
 1111 012a 00       		.byte	0
 1112 012b 00       		.byte	0
 1113 012c 12       		.uleb128 0x12
 1114 012d 2E       		.uleb128 0x2e
 1115 012e 00       		.byte	0
 1116 012f 3F       		.uleb128 0x3f
 1117 0130 19       		.uleb128 0x19
 1118 0131 03       		.uleb128 0x3
 1119 0132 0E       		.uleb128 0xe
 1120 0133 3A       		.uleb128 0x3a
 1121 0134 0B       		.uleb128 0xb
 1122 0135 3B       		.uleb128 0x3b
 1123 0136 05       		.uleb128 0x5
 1124 0137 27       		.uleb128 0x27
 1125 0138 19       		.uleb128 0x19
 1126 0139 49       		.uleb128 0x49
 1127 013a 13       		.uleb128 0x13
 1128 013b 11       		.uleb128 0x11
 1129 013c 01       		.uleb128 0x1
 1130 013d 12       		.uleb128 0x12
 1131 013e 06       		.uleb128 0x6
 1132 013f 40       		.uleb128 0x40
 1133 0140 18       		.uleb128 0x18
 1134 0141 9742     		.uleb128 0x2117
 1135 0143 19       		.uleb128 0x19
 1136 0144 00       		.byte	0
 1137 0145 00       		.byte	0
ARM GAS  C:\Users\Alex\AppData\Local\Temp\ccO66uyN.s 			page 28


 1138 0146 13       		.uleb128 0x13
 1139 0147 01       		.uleb128 0x1
 1140 0148 01       		.byte	0x1
 1141 0149 49       		.uleb128 0x49
 1142 014a 13       		.uleb128 0x13
 1143 014b 01       		.uleb128 0x1
 1144 014c 13       		.uleb128 0x13
 1145 014d 00       		.byte	0
 1146 014e 00       		.byte	0
 1147 014f 14       		.uleb128 0x14
 1148 0150 21       		.uleb128 0x21
 1149 0151 00       		.byte	0
 1150 0152 49       		.uleb128 0x49
 1151 0153 13       		.uleb128 0x13
 1152 0154 2F       		.uleb128 0x2f
 1153 0155 0B       		.uleb128 0xb
 1154 0156 00       		.byte	0
 1155 0157 00       		.byte	0
 1156 0158 15       		.uleb128 0x15
 1157 0159 34       		.uleb128 0x34
 1158 015a 00       		.byte	0
 1159 015b 03       		.uleb128 0x3
 1160 015c 0E       		.uleb128 0xe
 1161 015d 3A       		.uleb128 0x3a
 1162 015e 0B       		.uleb128 0xb
 1163 015f 3B       		.uleb128 0x3b
 1164 0160 0B       		.uleb128 0xb
 1165 0161 49       		.uleb128 0x49
 1166 0162 13       		.uleb128 0x13
 1167 0163 3F       		.uleb128 0x3f
 1168 0164 19       		.uleb128 0x19
 1169 0165 3C       		.uleb128 0x3c
 1170 0166 19       		.uleb128 0x19
 1171 0167 00       		.byte	0
 1172 0168 00       		.byte	0
 1173 0169 00       		.byte	0
 1174              		.section	.debug_aranges,"",%progbits
 1175 0000 7C000000 		.4byte	0x7c
 1176 0004 0200     		.2byte	0x2
 1177 0006 00000000 		.4byte	.Ldebug_info0
 1178 000a 04       		.byte	0x4
 1179 000b 00       		.byte	0
 1180 000c 0000     		.2byte	0
 1181 000e 0000     		.2byte	0
 1182 0010 00000000 		.4byte	.LFB2
 1183 0014 24000000 		.4byte	.LFE2-.LFB2
 1184 0018 00000000 		.4byte	.LFB3
 1185 001c 26000000 		.4byte	.LFE3-.LFB3
 1186 0020 00000000 		.4byte	.LFB4
 1187 0024 1C000000 		.4byte	.LFE4-.LFB4
 1188 0028 00000000 		.4byte	.LFB5
 1189 002c 0A000000 		.4byte	.LFE5-.LFB5
 1190 0030 00000000 		.4byte	.LFB6
 1191 0034 1C000000 		.4byte	.LFE6-.LFB6
 1192 0038 00000000 		.4byte	.LFB7
 1193 003c 14000000 		.4byte	.LFE7-.LFB7
 1194 0040 00000000 		.4byte	.LFB8
ARM GAS  C:\Users\Alex\AppData\Local\Temp\ccO66uyN.s 			page 29


 1195 0044 50000000 		.4byte	.LFE8-.LFB8
 1196 0048 00000000 		.4byte	.LFB9
 1197 004c 2C000000 		.4byte	.LFE9-.LFB9
 1198 0050 00000000 		.4byte	.LFB10
 1199 0054 14000000 		.4byte	.LFE10-.LFB10
 1200 0058 00000000 		.4byte	.LFB11
 1201 005c 20000000 		.4byte	.LFE11-.LFB11
 1202 0060 00000000 		.4byte	.LFB12
 1203 0064 14000000 		.4byte	.LFE12-.LFB12
 1204 0068 00000000 		.4byte	.LFB13
 1205 006c 14000000 		.4byte	.LFE13-.LFB13
 1206 0070 00000000 		.4byte	.LFB14
 1207 0074 14000000 		.4byte	.LFE14-.LFB14
 1208 0078 00000000 		.4byte	0
 1209 007c 00000000 		.4byte	0
 1210              		.section	.debug_ranges,"",%progbits
 1211              	.Ldebug_ranges0:
 1212 0000 00000000 		.4byte	.LFB2
 1213 0004 24000000 		.4byte	.LFE2
 1214 0008 00000000 		.4byte	.LFB3
 1215 000c 26000000 		.4byte	.LFE3
 1216 0010 00000000 		.4byte	.LFB4
 1217 0014 1C000000 		.4byte	.LFE4
 1218 0018 00000000 		.4byte	.LFB5
 1219 001c 0A000000 		.4byte	.LFE5
 1220 0020 00000000 		.4byte	.LFB6
 1221 0024 1C000000 		.4byte	.LFE6
 1222 0028 00000000 		.4byte	.LFB7
 1223 002c 14000000 		.4byte	.LFE7
 1224 0030 00000000 		.4byte	.LFB8
 1225 0034 50000000 		.4byte	.LFE8
 1226 0038 00000000 		.4byte	.LFB9
 1227 003c 2C000000 		.4byte	.LFE9
 1228 0040 00000000 		.4byte	.LFB10
 1229 0044 14000000 		.4byte	.LFE10
 1230 0048 00000000 		.4byte	.LFB11
 1231 004c 20000000 		.4byte	.LFE11
 1232 0050 00000000 		.4byte	.LFB12
 1233 0054 14000000 		.4byte	.LFE12
 1234 0058 00000000 		.4byte	.LFB13
 1235 005c 14000000 		.4byte	.LFE13
 1236 0060 00000000 		.4byte	.LFB14
 1237 0064 14000000 		.4byte	.LFE14
 1238 0068 00000000 		.4byte	0
 1239 006c 00000000 		.4byte	0
 1240              		.section	.debug_line,"",%progbits
 1241              	.Ldebug_line0:
 1242 0000 56010000 		.section	.debug_str,"MS",%progbits,1
 1242      02004800 
 1242      00000201 
 1242      FB0E0D00 
 1242      01010101 
 1243              	.LASF14:
 1244 0000 72656733 		.ascii	"reg32\000"
 1244      3200
 1245              	.LASF29:
 1246 0006 494E545F 		.ascii	"INT_Buttons_GetVector\000"
ARM GAS  C:\Users\Alex\AppData\Local\Temp\ccO66uyN.s 			page 30


 1246      42757474 
 1246      6F6E735F 
 1246      47657456 
 1246      6563746F 
 1247              	.LASF38:
 1248 001c 43795261 		.ascii	"CyRamVectors\000"
 1248      6D566563 
 1248      746F7273 
 1248      00
 1249              	.LASF37:
 1250 0029 494E545F 		.ascii	"INT_Buttons_GetPriority\000"
 1250      42757474 
 1250      6F6E735F 
 1250      47657450 
 1250      72696F72 
 1251              	.LASF3:
 1252 0041 73686F72 		.ascii	"short unsigned int\000"
 1252      7420756E 
 1252      7369676E 
 1252      65642069 
 1252      6E7400
 1253              	.LASF30:
 1254 0054 494E545F 		.ascii	"INT_Buttons_GetState\000"
 1254      42757474 
 1254      6F6E735F 
 1254      47657453 
 1254      74617465 
 1255              	.LASF11:
 1256 0069 666C6F61 		.ascii	"float\000"
 1256      7400
 1257              	.LASF22:
 1258 006f 494E545F 		.ascii	"INT_Buttons_SetVector\000"
 1258      42757474 
 1258      6F6E735F 
 1258      53657456 
 1258      6563746F 
 1259              	.LASF26:
 1260 0085 696E7465 		.ascii	"interruptState\000"
 1260      72727570 
 1260      74537461 
 1260      746500
 1261              	.LASF5:
 1262 0094 6C6F6E67 		.ascii	"long unsigned int\000"
 1262      20756E73 
 1262      69676E65 
 1262      6420696E 
 1262      7400
 1263              	.LASF9:
 1264 00a6 75696E74 		.ascii	"uint8\000"
 1264      3800
 1265              	.LASF35:
 1266 00ac 47656E65 		.ascii	"Generated_Source\\PSoC4\\INT_Buttons.c\000"
 1266      72617465 
 1266      645F536F 
 1266      75726365 
 1266      5C50536F 
 1267              	.LASF34:
ARM GAS  C:\Users\Alex\AppData\Local\Temp\ccO66uyN.s 			page 31


 1268 00d1 474E5520 		.ascii	"GNU C11 5.4.1 20160609 (release) [ARM/embedded-5-br"
 1268      43313120 
 1268      352E342E 
 1268      31203230 
 1268      31363036 
 1269 0104 616E6368 		.ascii	"anch revision 237715] -mcpu=cortex-m0 -mthumb -g -O"
 1269      20726576 
 1269      6973696F 
 1269      6E203233 
 1269      37373135 
 1270 0137 30202D66 		.ascii	"0 -ffunction-sections -ffat-lto-objects\000"
 1270      66756E63 
 1270      74696F6E 
 1270      2D736563 
 1270      74696F6E 
 1271              	.LASF25:
 1272 015f 7072696F 		.ascii	"priority\000"
 1272      72697479 
 1272      00
 1273              	.LASF19:
 1274 0168 494E545F 		.ascii	"INT_Buttons_Stop\000"
 1274      42757474 
 1274      6F6E735F 
 1274      53746F70 
 1274      00
 1275              	.LASF12:
 1276 0179 646F7562 		.ascii	"double\000"
 1276      6C6500
 1277              	.LASF36:
 1278 0180 463A5C44 		.ascii	"F:\\Documentos\\PSoC Creator\\EleaLightV2\\EleaLigh"
 1278      6F63756D 
 1278      656E746F 
 1278      735C5053 
 1278      6F432043 
 1279 01af 7456322E 		.ascii	"tV2.cydsn\000"
 1279      63796473 
 1279      6E00
 1280              	.LASF10:
 1281 01b9 75696E74 		.ascii	"uint32\000"
 1281      333200
 1282              	.LASF24:
 1283 01c0 494E545F 		.ascii	"INT_Buttons_SetPriority\000"
 1283      42757474 
 1283      6F6E735F 
 1283      53657450 
 1283      72696F72 
 1284              	.LASF1:
 1285 01d8 756E7369 		.ascii	"unsigned char\000"
 1285      676E6564 
 1285      20636861 
 1285      7200
 1286              	.LASF8:
 1287 01e6 756E7369 		.ascii	"unsigned int\000"
 1287      676E6564 
 1287      20696E74 
 1287      00
 1288              	.LASF23:
ARM GAS  C:\Users\Alex\AppData\Local\Temp\ccO66uyN.s 			page 32


 1289 01f3 61646472 		.ascii	"address\000"
 1289      65737300 
 1290              	.LASF7:
 1291 01fb 6C6F6E67 		.ascii	"long long unsigned int\000"
 1291      206C6F6E 
 1291      6720756E 
 1291      7369676E 
 1291      65642069 
 1292              	.LASF33:
 1293 0212 494E545F 		.ascii	"INT_Buttons_ClearPending\000"
 1293      42757474 
 1293      6F6E735F 
 1293      436C6561 
 1293      7250656E 
 1294              	.LASF21:
 1295 022b 494E545F 		.ascii	"INT_Buttons_StartEx\000"
 1295      42757474 
 1295      6F6E735F 
 1295      53746172 
 1295      74457800 
 1296              	.LASF15:
 1297 023f 63796973 		.ascii	"cyisraddress\000"
 1297      72616464 
 1297      72657373 
 1297      00
 1298              	.LASF17:
 1299 024c 73697A65 		.ascii	"sizetype\000"
 1299      74797065 
 1299      00
 1300              	.LASF18:
 1301 0255 494E545F 		.ascii	"INT_Buttons_Start\000"
 1301      42757474 
 1301      6F6E735F 
 1301      53746172 
 1301      7400
 1302              	.LASF6:
 1303 0267 6C6F6E67 		.ascii	"long long int\000"
 1303      206C6F6E 
 1303      6720696E 
 1303      7400
 1304              	.LASF20:
 1305 0275 494E545F 		.ascii	"INT_Buttons_Interrupt\000"
 1305      42757474 
 1305      6F6E735F 
 1305      496E7465 
 1305      72727570 
 1306              	.LASF31:
 1307 028b 494E545F 		.ascii	"INT_Buttons_Disable\000"
 1307      42757474 
 1307      6F6E735F 
 1307      44697361 
 1307      626C6500 
 1308              	.LASF2:
 1309 029f 73686F72 		.ascii	"short int\000"
 1309      7420696E 
 1309      7400
 1310              	.LASF28:
ARM GAS  C:\Users\Alex\AppData\Local\Temp\ccO66uyN.s 			page 33


 1311 02a9 494E545F 		.ascii	"INT_Buttons_Enable\000"
 1311      42757474 
 1311      6F6E735F 
 1311      456E6162 
 1311      6C6500
 1312              	.LASF27:
 1313 02bc 7072696F 		.ascii	"priorityOffset\000"
 1313      72697479 
 1313      4F666673 
 1313      657400
 1314              	.LASF4:
 1315 02cb 6C6F6E67 		.ascii	"long int\000"
 1315      20696E74 
 1315      00
 1316              	.LASF13:
 1317 02d4 63686172 		.ascii	"char\000"
 1317      00
 1318              	.LASF32:
 1319 02d9 494E545F 		.ascii	"INT_Buttons_SetPending\000"
 1319      42757474 
 1319      6F6E735F 
 1319      53657450 
 1319      656E6469 
 1320              	.LASF16:
 1321 02f0 6C6F6E67 		.ascii	"long double\000"
 1321      20646F75 
 1321      626C6500 
 1322              	.LASF0:
 1323 02fc 7369676E 		.ascii	"signed char\000"
 1323      65642063 
 1323      68617200 
 1324              		.ident	"GCC: (GNU Tools for ARM Embedded Processors) 5.4.1 20160609 (release) [ARM/embedded-5-bran
