ARM GAS  C:\Users\ELEASO~1\AppData\Local\Temp\ccj0QStp.s 			page 1


   1              		.syntax unified
   2              		.cpu cortex-m0
   3              		.fpu softvfp
   4              		.eabi_attribute 20, 1
   5              		.eabi_attribute 21, 1
   6              		.eabi_attribute 23, 3
   7              		.eabi_attribute 24, 1
   8              		.eabi_attribute 25, 1
   9              		.eabi_attribute 26, 1
  10              		.eabi_attribute 30, 6
  11              		.eabi_attribute 34, 0
  12              		.eabi_attribute 18, 4
  13              		.thumb
  14              		.syntax unified
  15              		.file	"Out_R_PM.c"
  16              		.text
  17              	.Ltext0:
  18              		.cfi_sections	.debug_frame
  19              		.bss
  20              		.align	2
  21              	Out_R_backup:
  22 0000 00000000 		.space	12
  22      00000000 
  22      00000000 
  23              		.section	.text.Out_R_Sleep,"ax",%progbits
  24              		.align	2
  25              		.global	Out_R_Sleep
  26              		.code	16
  27              		.thumb_func
  28              		.type	Out_R_Sleep, %function
  29              	Out_R_Sleep:
  30              	.LFB0:
  31              		.file 1 "Generated_Source\\PSoC4\\Out_R_PM.c"
   1:Generated_Source\PSoC4/Out_R_PM.c **** /*******************************************************************************
   2:Generated_Source\PSoC4/Out_R_PM.c **** * File Name: Out_R.c  
   3:Generated_Source\PSoC4/Out_R_PM.c **** * Version 2.20
   4:Generated_Source\PSoC4/Out_R_PM.c **** *
   5:Generated_Source\PSoC4/Out_R_PM.c **** * Description:
   6:Generated_Source\PSoC4/Out_R_PM.c **** *  This file contains APIs to set up the Pins component for low power modes.
   7:Generated_Source\PSoC4/Out_R_PM.c **** *
   8:Generated_Source\PSoC4/Out_R_PM.c **** * Note:
   9:Generated_Source\PSoC4/Out_R_PM.c **** *
  10:Generated_Source\PSoC4/Out_R_PM.c **** ********************************************************************************
  11:Generated_Source\PSoC4/Out_R_PM.c **** * Copyright 2015, Cypress Semiconductor Corporation.  All rights reserved.
  12:Generated_Source\PSoC4/Out_R_PM.c **** * You may use this file only in accordance with the license, terms, conditions, 
  13:Generated_Source\PSoC4/Out_R_PM.c **** * disclaimers, and limitations in the end user license agreement accompanying 
  14:Generated_Source\PSoC4/Out_R_PM.c **** * the software package with which this file was provided.
  15:Generated_Source\PSoC4/Out_R_PM.c **** *******************************************************************************/
  16:Generated_Source\PSoC4/Out_R_PM.c **** 
  17:Generated_Source\PSoC4/Out_R_PM.c **** #include "cytypes.h"
  18:Generated_Source\PSoC4/Out_R_PM.c **** #include "Out_R.h"
  19:Generated_Source\PSoC4/Out_R_PM.c **** 
  20:Generated_Source\PSoC4/Out_R_PM.c **** static Out_R_BACKUP_STRUCT  Out_R_backup = {0u, 0u, 0u};
  21:Generated_Source\PSoC4/Out_R_PM.c **** 
  22:Generated_Source\PSoC4/Out_R_PM.c **** 
  23:Generated_Source\PSoC4/Out_R_PM.c **** /*******************************************************************************
  24:Generated_Source\PSoC4/Out_R_PM.c **** * Function Name: Out_R_Sleep
ARM GAS  C:\Users\ELEASO~1\AppData\Local\Temp\ccj0QStp.s 			page 2


  25:Generated_Source\PSoC4/Out_R_PM.c **** ****************************************************************************//**
  26:Generated_Source\PSoC4/Out_R_PM.c **** *
  27:Generated_Source\PSoC4/Out_R_PM.c **** * \brief Stores the pin configuration and prepares the pin for entering chip 
  28:Generated_Source\PSoC4/Out_R_PM.c **** *  deep-sleep/hibernate modes. This function applies only to SIO and USBIO pins.
  29:Generated_Source\PSoC4/Out_R_PM.c **** *  It should not be called for GPIO or GPIO_OVT pins.
  30:Generated_Source\PSoC4/Out_R_PM.c **** *
  31:Generated_Source\PSoC4/Out_R_PM.c **** * <b>Note</b> This function is available in PSoC 4 only.
  32:Generated_Source\PSoC4/Out_R_PM.c **** *
  33:Generated_Source\PSoC4/Out_R_PM.c **** * \return 
  34:Generated_Source\PSoC4/Out_R_PM.c **** *  None 
  35:Generated_Source\PSoC4/Out_R_PM.c **** *  
  36:Generated_Source\PSoC4/Out_R_PM.c **** * \sideeffect
  37:Generated_Source\PSoC4/Out_R_PM.c **** *  For SIO pins, this function configures the pin input threshold to CMOS and
  38:Generated_Source\PSoC4/Out_R_PM.c **** *  drive level to Vddio. This is needed for SIO pins when in device 
  39:Generated_Source\PSoC4/Out_R_PM.c **** *  deep-sleep/hibernate modes.
  40:Generated_Source\PSoC4/Out_R_PM.c **** *
  41:Generated_Source\PSoC4/Out_R_PM.c **** * \funcusage
  42:Generated_Source\PSoC4/Out_R_PM.c **** *  \snippet Out_R_SUT.c usage_Out_R_Sleep_Wakeup
  43:Generated_Source\PSoC4/Out_R_PM.c **** *******************************************************************************/
  44:Generated_Source\PSoC4/Out_R_PM.c **** void Out_R_Sleep(void)
  45:Generated_Source\PSoC4/Out_R_PM.c **** {
  32              		.loc 1 45 0
  33              		.cfi_startproc
  34              		@ args = 0, pretend = 0, frame = 0
  35              		@ frame_needed = 1, uses_anonymous_args = 0
  36 0000 80B5     		push	{r7, lr}
  37              		.cfi_def_cfa_offset 8
  38              		.cfi_offset 7, -8
  39              		.cfi_offset 14, -4
  40 0002 00AF     		add	r7, sp, #0
  41              		.cfi_def_cfa_register 7
  46:Generated_Source\PSoC4/Out_R_PM.c ****     #if defined(Out_R__PC)
  47:Generated_Source\PSoC4/Out_R_PM.c ****         Out_R_backup.pcState = Out_R_PC;
  42              		.loc 1 47 0
  43 0004 034B     		ldr	r3, .L2
  44 0006 1A68     		ldr	r2, [r3]
  45 0008 034B     		ldr	r3, .L2+4
  46 000a 1A60     		str	r2, [r3]
  48:Generated_Source\PSoC4/Out_R_PM.c ****     #else
  49:Generated_Source\PSoC4/Out_R_PM.c ****         #if (CY_PSOC4_4200L)
  50:Generated_Source\PSoC4/Out_R_PM.c ****             /* Save the regulator state and put the PHY into suspend mode */
  51:Generated_Source\PSoC4/Out_R_PM.c ****             Out_R_backup.usbState = Out_R_CR1_REG;
  52:Generated_Source\PSoC4/Out_R_PM.c ****             Out_R_USB_POWER_REG |= Out_R_USBIO_ENTER_SLEEP;
  53:Generated_Source\PSoC4/Out_R_PM.c ****             Out_R_CR1_REG &= Out_R_USBIO_CR1_OFF;
  54:Generated_Source\PSoC4/Out_R_PM.c ****         #endif
  55:Generated_Source\PSoC4/Out_R_PM.c ****     #endif
  56:Generated_Source\PSoC4/Out_R_PM.c ****     #if defined(CYIPBLOCK_m0s8ioss_VERSION) && defined(Out_R__SIO)
  57:Generated_Source\PSoC4/Out_R_PM.c ****         Out_R_backup.sioState = Out_R_SIO_REG;
  58:Generated_Source\PSoC4/Out_R_PM.c ****         /* SIO requires unregulated output buffer and single ended input buffer */
  59:Generated_Source\PSoC4/Out_R_PM.c ****         Out_R_SIO_REG &= (uint32)(~Out_R_SIO_LPM_MASK);
  60:Generated_Source\PSoC4/Out_R_PM.c ****     #endif  
  61:Generated_Source\PSoC4/Out_R_PM.c **** }
  47              		.loc 1 61 0
  48 000c C046     		nop
  49 000e BD46     		mov	sp, r7
  50              		@ sp needed
  51 0010 80BD     		pop	{r7, pc}
ARM GAS  C:\Users\ELEASO~1\AppData\Local\Temp\ccj0QStp.s 			page 3


  52              	.L3:
  53 0012 C046     		.align	2
  54              	.L2:
  55 0014 08030440 		.word	1074004744
  56 0018 00000000 		.word	Out_R_backup
  57              		.cfi_endproc
  58              	.LFE0:
  59              		.size	Out_R_Sleep, .-Out_R_Sleep
  60              		.section	.text.Out_R_Wakeup,"ax",%progbits
  61              		.align	2
  62              		.global	Out_R_Wakeup
  63              		.code	16
  64              		.thumb_func
  65              		.type	Out_R_Wakeup, %function
  66              	Out_R_Wakeup:
  67              	.LFB1:
  62:Generated_Source\PSoC4/Out_R_PM.c **** 
  63:Generated_Source\PSoC4/Out_R_PM.c **** 
  64:Generated_Source\PSoC4/Out_R_PM.c **** /*******************************************************************************
  65:Generated_Source\PSoC4/Out_R_PM.c **** * Function Name: Out_R_Wakeup
  66:Generated_Source\PSoC4/Out_R_PM.c **** ****************************************************************************//**
  67:Generated_Source\PSoC4/Out_R_PM.c **** *
  68:Generated_Source\PSoC4/Out_R_PM.c **** * \brief Restores the pin configuration that was saved during Pin_Sleep(). This 
  69:Generated_Source\PSoC4/Out_R_PM.c **** * function applies only to SIO and USBIO pins. It should not be called for
  70:Generated_Source\PSoC4/Out_R_PM.c **** * GPIO or GPIO_OVT pins.
  71:Generated_Source\PSoC4/Out_R_PM.c **** *
  72:Generated_Source\PSoC4/Out_R_PM.c **** * For USBIO pins, the wakeup is only triggered for falling edge interrupts.
  73:Generated_Source\PSoC4/Out_R_PM.c **** *
  74:Generated_Source\PSoC4/Out_R_PM.c **** * <b>Note</b> This function is available in PSoC 4 only.
  75:Generated_Source\PSoC4/Out_R_PM.c **** *
  76:Generated_Source\PSoC4/Out_R_PM.c **** * \return 
  77:Generated_Source\PSoC4/Out_R_PM.c **** *  None
  78:Generated_Source\PSoC4/Out_R_PM.c **** *  
  79:Generated_Source\PSoC4/Out_R_PM.c **** * \funcusage
  80:Generated_Source\PSoC4/Out_R_PM.c **** *  Refer to Out_R_Sleep() for an example usage.
  81:Generated_Source\PSoC4/Out_R_PM.c **** *******************************************************************************/
  82:Generated_Source\PSoC4/Out_R_PM.c **** void Out_R_Wakeup(void)
  83:Generated_Source\PSoC4/Out_R_PM.c **** {
  68              		.loc 1 83 0
  69              		.cfi_startproc
  70              		@ args = 0, pretend = 0, frame = 0
  71              		@ frame_needed = 1, uses_anonymous_args = 0
  72 0000 80B5     		push	{r7, lr}
  73              		.cfi_def_cfa_offset 8
  74              		.cfi_offset 7, -8
  75              		.cfi_offset 14, -4
  76 0002 00AF     		add	r7, sp, #0
  77              		.cfi_def_cfa_register 7
  84:Generated_Source\PSoC4/Out_R_PM.c ****     #if defined(Out_R__PC)
  85:Generated_Source\PSoC4/Out_R_PM.c ****         Out_R_PC = Out_R_backup.pcState;
  78              		.loc 1 85 0
  79 0004 034A     		ldr	r2, .L5
  80 0006 044B     		ldr	r3, .L5+4
  81 0008 1B68     		ldr	r3, [r3]
  82 000a 1360     		str	r3, [r2]
  86:Generated_Source\PSoC4/Out_R_PM.c ****     #else
  87:Generated_Source\PSoC4/Out_R_PM.c ****         #if (CY_PSOC4_4200L)
ARM GAS  C:\Users\ELEASO~1\AppData\Local\Temp\ccj0QStp.s 			page 4


  88:Generated_Source\PSoC4/Out_R_PM.c ****             /* Restore the regulator state and come out of suspend mode */
  89:Generated_Source\PSoC4/Out_R_PM.c ****             Out_R_USB_POWER_REG &= Out_R_USBIO_EXIT_SLEEP_PH1;
  90:Generated_Source\PSoC4/Out_R_PM.c ****             Out_R_CR1_REG = Out_R_backup.usbState;
  91:Generated_Source\PSoC4/Out_R_PM.c ****             Out_R_USB_POWER_REG &= Out_R_USBIO_EXIT_SLEEP_PH2;
  92:Generated_Source\PSoC4/Out_R_PM.c ****         #endif
  93:Generated_Source\PSoC4/Out_R_PM.c ****     #endif
  94:Generated_Source\PSoC4/Out_R_PM.c ****     #if defined(CYIPBLOCK_m0s8ioss_VERSION) && defined(Out_R__SIO)
  95:Generated_Source\PSoC4/Out_R_PM.c ****         Out_R_SIO_REG = Out_R_backup.sioState;
  96:Generated_Source\PSoC4/Out_R_PM.c ****     #endif
  97:Generated_Source\PSoC4/Out_R_PM.c **** }
  83              		.loc 1 97 0
  84 000c C046     		nop
  85 000e BD46     		mov	sp, r7
  86              		@ sp needed
  87 0010 80BD     		pop	{r7, pc}
  88              	.L6:
  89 0012 C046     		.align	2
  90              	.L5:
  91 0014 08030440 		.word	1074004744
  92 0018 00000000 		.word	Out_R_backup
  93              		.cfi_endproc
  94              	.LFE1:
  95              		.size	Out_R_Wakeup, .-Out_R_Wakeup
  96              		.text
  97              	.Letext0:
  98              		.file 2 "Generated_Source\\PSoC4\\cytypes.h"
  99              		.file 3 "Generated_Source\\PSoC4\\Out_R.h"
 100              		.section	.debug_info,"",%progbits
 101              	.Ldebug_info0:
 102 0000 05010000 		.4byte	0x105
 103 0004 0400     		.2byte	0x4
 104 0006 00000000 		.4byte	.Ldebug_abbrev0
 105 000a 04       		.byte	0x4
 106 000b 01       		.uleb128 0x1
 107 000c EE000000 		.4byte	.LASF20
 108 0010 0C       		.byte	0xc
 109 0011 8C000000 		.4byte	.LASF21
 110 0015 22000000 		.4byte	.LASF22
 111 0019 00000000 		.4byte	.Ldebug_ranges0+0
 112 001d 00000000 		.4byte	0
 113 0021 00000000 		.4byte	.Ldebug_line0
 114 0025 02       		.uleb128 0x2
 115 0026 01       		.byte	0x1
 116 0027 06       		.byte	0x6
 117 0028 E5010000 		.4byte	.LASF0
 118 002c 02       		.uleb128 0x2
 119 002d 01       		.byte	0x1
 120 002e 08       		.byte	0x8
 121 002f AE000000 		.4byte	.LASF1
 122 0033 02       		.uleb128 0x2
 123 0034 02       		.byte	0x2
 124 0035 05       		.byte	0x5
 125 0036 CA010000 		.4byte	.LASF2
 126 003a 02       		.uleb128 0x2
 127 003b 02       		.byte	0x2
 128 003c 07       		.byte	0x7
 129 003d DB000000 		.4byte	.LASF3
ARM GAS  C:\Users\ELEASO~1\AppData\Local\Temp\ccj0QStp.s 			page 5


 130 0041 02       		.uleb128 0x2
 131 0042 04       		.byte	0x4
 132 0043 05       		.byte	0x5
 133 0044 DC010000 		.4byte	.LASF4
 134 0048 02       		.uleb128 0x2
 135 0049 04       		.byte	0x4
 136 004a 07       		.byte	0x7
 137 004b C9000000 		.4byte	.LASF5
 138 004f 02       		.uleb128 0x2
 139 0050 08       		.byte	0x8
 140 0051 05       		.byte	0x5
 141 0052 B7010000 		.4byte	.LASF6
 142 0056 02       		.uleb128 0x2
 143 0057 08       		.byte	0x8
 144 0058 07       		.byte	0x7
 145 0059 97010000 		.4byte	.LASF7
 146 005d 03       		.uleb128 0x3
 147 005e 04       		.byte	0x4
 148 005f 05       		.byte	0x5
 149 0060 696E7400 		.ascii	"int\000"
 150 0064 02       		.uleb128 0x2
 151 0065 04       		.byte	0x4
 152 0066 07       		.byte	0x7
 153 0067 8A010000 		.4byte	.LASF8
 154 006b 04       		.uleb128 0x4
 155 006c 83010000 		.4byte	.LASF12
 156 0070 02       		.byte	0x2
 157 0071 D401     		.2byte	0x1d4
 158 0073 48000000 		.4byte	0x48
 159 0077 02       		.uleb128 0x2
 160 0078 04       		.byte	0x4
 161 0079 04       		.byte	0x4
 162 007a 0F000000 		.4byte	.LASF9
 163 007e 02       		.uleb128 0x2
 164 007f 08       		.byte	0x8
 165 0080 04       		.byte	0x4
 166 0081 7C010000 		.4byte	.LASF10
 167 0085 02       		.uleb128 0x2
 168 0086 01       		.byte	0x1
 169 0087 08       		.byte	0x8
 170 0088 C5010000 		.4byte	.LASF11
 171 008c 04       		.uleb128 0x4
 172 008d 00000000 		.4byte	.LASF13
 173 0091 02       		.byte	0x2
 174 0092 7E02     		.2byte	0x27e
 175 0094 98000000 		.4byte	0x98
 176 0098 05       		.uleb128 0x5
 177 0099 6B000000 		.4byte	0x6b
 178 009d 06       		.uleb128 0x6
 179 009e 0C       		.byte	0xc
 180 009f 03       		.byte	0x3
 181 00a0 21       		.byte	0x21
 182 00a1 CA000000 		.4byte	0xca
 183 00a5 07       		.uleb128 0x7
 184 00a6 D4010000 		.4byte	.LASF14
 185 00aa 03       		.byte	0x3
 186 00ab 23       		.byte	0x23
ARM GAS  C:\Users\ELEASO~1\AppData\Local\Temp\ccj0QStp.s 			page 6


 187 00ac 6B000000 		.4byte	0x6b
 188 00b0 00       		.byte	0
 189 00b1 07       		.uleb128 0x7
 190 00b2 AE010000 		.4byte	.LASF15
 191 00b6 03       		.byte	0x3
 192 00b7 24       		.byte	0x24
 193 00b8 6B000000 		.4byte	0x6b
 194 00bc 04       		.byte	0x4
 195 00bd 07       		.uleb128 0x7
 196 00be 06000000 		.4byte	.LASF16
 197 00c2 03       		.byte	0x3
 198 00c3 25       		.byte	0x25
 199 00c4 6B000000 		.4byte	0x6b
 200 00c8 08       		.byte	0x8
 201 00c9 00       		.byte	0
 202 00ca 08       		.uleb128 0x8
 203 00cb 78000000 		.4byte	.LASF17
 204 00cf 03       		.byte	0x3
 205 00d0 26       		.byte	0x26
 206 00d1 9D000000 		.4byte	0x9d
 207 00d5 09       		.uleb128 0x9
 208 00d6 6C000000 		.4byte	.LASF18
 209 00da 01       		.byte	0x1
 210 00db 2C       		.byte	0x2c
 211 00dc 00000000 		.4byte	.LFB0
 212 00e0 1C000000 		.4byte	.LFE0-.LFB0
 213 00e4 01       		.uleb128 0x1
 214 00e5 9C       		.byte	0x9c
 215 00e6 09       		.uleb128 0x9
 216 00e7 BC000000 		.4byte	.LASF19
 217 00eb 01       		.byte	0x1
 218 00ec 52       		.byte	0x52
 219 00ed 00000000 		.4byte	.LFB1
 220 00f1 1C000000 		.4byte	.LFE1-.LFB1
 221 00f5 01       		.uleb128 0x1
 222 00f6 9C       		.byte	0x9c
 223 00f7 0A       		.uleb128 0xa
 224 00f8 15000000 		.4byte	.LASF23
 225 00fc 01       		.byte	0x1
 226 00fd 14       		.byte	0x14
 227 00fe CA000000 		.4byte	0xca
 228 0102 05       		.uleb128 0x5
 229 0103 03       		.byte	0x3
 230 0104 00000000 		.4byte	Out_R_backup
 231 0108 00       		.byte	0
 232              		.section	.debug_abbrev,"",%progbits
 233              	.Ldebug_abbrev0:
 234 0000 01       		.uleb128 0x1
 235 0001 11       		.uleb128 0x11
 236 0002 01       		.byte	0x1
 237 0003 25       		.uleb128 0x25
 238 0004 0E       		.uleb128 0xe
 239 0005 13       		.uleb128 0x13
 240 0006 0B       		.uleb128 0xb
 241 0007 03       		.uleb128 0x3
 242 0008 0E       		.uleb128 0xe
 243 0009 1B       		.uleb128 0x1b
ARM GAS  C:\Users\ELEASO~1\AppData\Local\Temp\ccj0QStp.s 			page 7


 244 000a 0E       		.uleb128 0xe
 245 000b 55       		.uleb128 0x55
 246 000c 17       		.uleb128 0x17
 247 000d 11       		.uleb128 0x11
 248 000e 01       		.uleb128 0x1
 249 000f 10       		.uleb128 0x10
 250 0010 17       		.uleb128 0x17
 251 0011 00       		.byte	0
 252 0012 00       		.byte	0
 253 0013 02       		.uleb128 0x2
 254 0014 24       		.uleb128 0x24
 255 0015 00       		.byte	0
 256 0016 0B       		.uleb128 0xb
 257 0017 0B       		.uleb128 0xb
 258 0018 3E       		.uleb128 0x3e
 259 0019 0B       		.uleb128 0xb
 260 001a 03       		.uleb128 0x3
 261 001b 0E       		.uleb128 0xe
 262 001c 00       		.byte	0
 263 001d 00       		.byte	0
 264 001e 03       		.uleb128 0x3
 265 001f 24       		.uleb128 0x24
 266 0020 00       		.byte	0
 267 0021 0B       		.uleb128 0xb
 268 0022 0B       		.uleb128 0xb
 269 0023 3E       		.uleb128 0x3e
 270 0024 0B       		.uleb128 0xb
 271 0025 03       		.uleb128 0x3
 272 0026 08       		.uleb128 0x8
 273 0027 00       		.byte	0
 274 0028 00       		.byte	0
 275 0029 04       		.uleb128 0x4
 276 002a 16       		.uleb128 0x16
 277 002b 00       		.byte	0
 278 002c 03       		.uleb128 0x3
 279 002d 0E       		.uleb128 0xe
 280 002e 3A       		.uleb128 0x3a
 281 002f 0B       		.uleb128 0xb
 282 0030 3B       		.uleb128 0x3b
 283 0031 05       		.uleb128 0x5
 284 0032 49       		.uleb128 0x49
 285 0033 13       		.uleb128 0x13
 286 0034 00       		.byte	0
 287 0035 00       		.byte	0
 288 0036 05       		.uleb128 0x5
 289 0037 35       		.uleb128 0x35
 290 0038 00       		.byte	0
 291 0039 49       		.uleb128 0x49
 292 003a 13       		.uleb128 0x13
 293 003b 00       		.byte	0
 294 003c 00       		.byte	0
 295 003d 06       		.uleb128 0x6
 296 003e 13       		.uleb128 0x13
 297 003f 01       		.byte	0x1
 298 0040 0B       		.uleb128 0xb
 299 0041 0B       		.uleb128 0xb
 300 0042 3A       		.uleb128 0x3a
ARM GAS  C:\Users\ELEASO~1\AppData\Local\Temp\ccj0QStp.s 			page 8


 301 0043 0B       		.uleb128 0xb
 302 0044 3B       		.uleb128 0x3b
 303 0045 0B       		.uleb128 0xb
 304 0046 01       		.uleb128 0x1
 305 0047 13       		.uleb128 0x13
 306 0048 00       		.byte	0
 307 0049 00       		.byte	0
 308 004a 07       		.uleb128 0x7
 309 004b 0D       		.uleb128 0xd
 310 004c 00       		.byte	0
 311 004d 03       		.uleb128 0x3
 312 004e 0E       		.uleb128 0xe
 313 004f 3A       		.uleb128 0x3a
 314 0050 0B       		.uleb128 0xb
 315 0051 3B       		.uleb128 0x3b
 316 0052 0B       		.uleb128 0xb
 317 0053 49       		.uleb128 0x49
 318 0054 13       		.uleb128 0x13
 319 0055 38       		.uleb128 0x38
 320 0056 0B       		.uleb128 0xb
 321 0057 00       		.byte	0
 322 0058 00       		.byte	0
 323 0059 08       		.uleb128 0x8
 324 005a 16       		.uleb128 0x16
 325 005b 00       		.byte	0
 326 005c 03       		.uleb128 0x3
 327 005d 0E       		.uleb128 0xe
 328 005e 3A       		.uleb128 0x3a
 329 005f 0B       		.uleb128 0xb
 330 0060 3B       		.uleb128 0x3b
 331 0061 0B       		.uleb128 0xb
 332 0062 49       		.uleb128 0x49
 333 0063 13       		.uleb128 0x13
 334 0064 00       		.byte	0
 335 0065 00       		.byte	0
 336 0066 09       		.uleb128 0x9
 337 0067 2E       		.uleb128 0x2e
 338 0068 00       		.byte	0
 339 0069 3F       		.uleb128 0x3f
 340 006a 19       		.uleb128 0x19
 341 006b 03       		.uleb128 0x3
 342 006c 0E       		.uleb128 0xe
 343 006d 3A       		.uleb128 0x3a
 344 006e 0B       		.uleb128 0xb
 345 006f 3B       		.uleb128 0x3b
 346 0070 0B       		.uleb128 0xb
 347 0071 27       		.uleb128 0x27
 348 0072 19       		.uleb128 0x19
 349 0073 11       		.uleb128 0x11
 350 0074 01       		.uleb128 0x1
 351 0075 12       		.uleb128 0x12
 352 0076 06       		.uleb128 0x6
 353 0077 40       		.uleb128 0x40
 354 0078 18       		.uleb128 0x18
 355 0079 9742     		.uleb128 0x2117
 356 007b 19       		.uleb128 0x19
 357 007c 00       		.byte	0
ARM GAS  C:\Users\ELEASO~1\AppData\Local\Temp\ccj0QStp.s 			page 9


 358 007d 00       		.byte	0
 359 007e 0A       		.uleb128 0xa
 360 007f 34       		.uleb128 0x34
 361 0080 00       		.byte	0
 362 0081 03       		.uleb128 0x3
 363 0082 0E       		.uleb128 0xe
 364 0083 3A       		.uleb128 0x3a
 365 0084 0B       		.uleb128 0xb
 366 0085 3B       		.uleb128 0x3b
 367 0086 0B       		.uleb128 0xb
 368 0087 49       		.uleb128 0x49
 369 0088 13       		.uleb128 0x13
 370 0089 02       		.uleb128 0x2
 371 008a 18       		.uleb128 0x18
 372 008b 00       		.byte	0
 373 008c 00       		.byte	0
 374 008d 00       		.byte	0
 375              		.section	.debug_aranges,"",%progbits
 376 0000 24000000 		.4byte	0x24
 377 0004 0200     		.2byte	0x2
 378 0006 00000000 		.4byte	.Ldebug_info0
 379 000a 04       		.byte	0x4
 380 000b 00       		.byte	0
 381 000c 0000     		.2byte	0
 382 000e 0000     		.2byte	0
 383 0010 00000000 		.4byte	.LFB0
 384 0014 1C000000 		.4byte	.LFE0-.LFB0
 385 0018 00000000 		.4byte	.LFB1
 386 001c 1C000000 		.4byte	.LFE1-.LFB1
 387 0020 00000000 		.4byte	0
 388 0024 00000000 		.4byte	0
 389              		.section	.debug_ranges,"",%progbits
 390              	.Ldebug_ranges0:
 391 0000 00000000 		.4byte	.LFB0
 392 0004 1C000000 		.4byte	.LFE0
 393 0008 00000000 		.4byte	.LFB1
 394 000c 1C000000 		.4byte	.LFE1
 395 0010 00000000 		.4byte	0
 396 0014 00000000 		.4byte	0
 397              		.section	.debug_line,"",%progbits
 398              	.Ldebug_line0:
 399 0000 7D000000 		.section	.debug_str,"MS",%progbits,1
 399      02005000 
 399      00000201 
 399      FB0E0D00 
 399      01010101 
 400              	.LASF13:
 401 0000 72656733 		.ascii	"reg32\000"
 401      3200
 402              	.LASF16:
 403 0006 75736253 		.ascii	"usbState\000"
 403      74617465 
 403      00
 404              	.LASF9:
 405 000f 666C6F61 		.ascii	"float\000"
 405      7400
 406              	.LASF23:
ARM GAS  C:\Users\ELEASO~1\AppData\Local\Temp\ccj0QStp.s 			page 10


 407 0015 4F75745F 		.ascii	"Out_R_backup\000"
 407      525F6261 
 407      636B7570 
 407      00
 408              	.LASF22:
 409 0022 433A5C55 		.ascii	"C:\\Users\\EleaSoluciones\\Desktop\\Cosas\\ModuloPo"
 409      73657273 
 409      5C456C65 
 409      61536F6C 
 409      7563696F 
 410 0050 7274616C 		.ascii	"rtal_Digital_PAX_V1_1.cydsn\000"
 410      5F446967 
 410      6974616C 
 410      5F504158 
 410      5F56315F 
 411              	.LASF18:
 412 006c 4F75745F 		.ascii	"Out_R_Sleep\000"
 412      525F536C 
 412      65657000 
 413              	.LASF17:
 414 0078 4F75745F 		.ascii	"Out_R_BACKUP_STRUCT\000"
 414      525F4241 
 414      434B5550 
 414      5F535452 
 414      55435400 
 415              	.LASF21:
 416 008c 47656E65 		.ascii	"Generated_Source\\PSoC4\\Out_R_PM.c\000"
 416      72617465 
 416      645F536F 
 416      75726365 
 416      5C50536F 
 417              	.LASF1:
 418 00ae 756E7369 		.ascii	"unsigned char\000"
 418      676E6564 
 418      20636861 
 418      7200
 419              	.LASF19:
 420 00bc 4F75745F 		.ascii	"Out_R_Wakeup\000"
 420      525F5761 
 420      6B657570 
 420      00
 421              	.LASF5:
 422 00c9 6C6F6E67 		.ascii	"long unsigned int\000"
 422      20756E73 
 422      69676E65 
 422      6420696E 
 422      7400
 423              	.LASF3:
 424 00db 73686F72 		.ascii	"short unsigned int\000"
 424      7420756E 
 424      7369676E 
 424      65642069 
 424      6E7400
 425              	.LASF20:
 426 00ee 474E5520 		.ascii	"GNU C11 5.4.1 20160609 (release) [ARM/embedded-5-br"
 426      43313120 
 426      352E342E 
ARM GAS  C:\Users\ELEASO~1\AppData\Local\Temp\ccj0QStp.s 			page 11


 426      31203230 
 426      31363036 
 427 0121 616E6368 		.ascii	"anch revision 237715] -mcpu=cortex-m0 -mthumb -g -O"
 427      20726576 
 427      6973696F 
 427      6E203233 
 427      37373135 
 428 0154 30202D66 		.ascii	"0 -ffunction-sections -ffat-lto-objects\000"
 428      66756E63 
 428      74696F6E 
 428      2D736563 
 428      74696F6E 
 429              	.LASF10:
 430 017c 646F7562 		.ascii	"double\000"
 430      6C6500
 431              	.LASF12:
 432 0183 75696E74 		.ascii	"uint32\000"
 432      333200
 433              	.LASF8:
 434 018a 756E7369 		.ascii	"unsigned int\000"
 434      676E6564 
 434      20696E74 
 434      00
 435              	.LASF7:
 436 0197 6C6F6E67 		.ascii	"long long unsigned int\000"
 436      206C6F6E 
 436      6720756E 
 436      7369676E 
 436      65642069 
 437              	.LASF15:
 438 01ae 73696F53 		.ascii	"sioState\000"
 438      74617465 
 438      00
 439              	.LASF6:
 440 01b7 6C6F6E67 		.ascii	"long long int\000"
 440      206C6F6E 
 440      6720696E 
 440      7400
 441              	.LASF11:
 442 01c5 63686172 		.ascii	"char\000"
 442      00
 443              	.LASF2:
 444 01ca 73686F72 		.ascii	"short int\000"
 444      7420696E 
 444      7400
 445              	.LASF14:
 446 01d4 70635374 		.ascii	"pcState\000"
 446      61746500 
 447              	.LASF4:
 448 01dc 6C6F6E67 		.ascii	"long int\000"
 448      20696E74 
 448      00
 449              	.LASF0:
 450 01e5 7369676E 		.ascii	"signed char\000"
 450      65642063 
 450      68617200 
 451              		.ident	"GCC: (GNU Tools for ARM Embedded Processors) 5.4.1 20160609 (release) [ARM/embedded-5-bran
ARM GAS  C:\Users\ELEASO~1\AppData\Local\Temp\ccj0QStp.s 			page 12


